<?xml version="1.0" encoding="UTF-8"?>
<!DOCTYPE svg PUBLIC "-//W3C//DTD SVG 1.1//EN" "http://www.w3.org/Graphics/SVG/1.1/DTD/svg11.dtd">
<!-- Creator: CorelDRAW X6 -->
<svg xmlns="http://www.w3.org/2000/svg" xml:space="preserve" width="55.19mm" height="92.945mm" version="1.1" style="shape-rendering:geometricPrecision; text-rendering:geometricPrecision; image-rendering:optimizeQuality; fill-rule:evenodd; clip-rule:evenodd"
viewBox="0 0 5519 9295"
 xmlns:xlink="http://www.w3.org/1999/xlink">
 <defs>
  <style type="text/css">
   <![CDATA[
    .fil1 {fill:#606062}
    .fil3 {fill:#AC3746}
    .fil0 {fill:#606062;fill-rule:nonzero}
    .fil2 {fill:#AC3746;fill-rule:nonzero}
   ]]>
  </style>
 </defs>
 <g id="Camada_x0020_1">
  <metadata id="CorelCorpID_0Corel-Layer"/>
  <g id="_641232896">
   <path class="fil0" d="M2044 9277c18,0 38,-3 57,-8 20,-5 38,-14 53,-26 15,-12 28,-26 36,-41 9,-15 16,-35 21,-59 5,-24 8,-48 8,-72 0,-30 -4,-60 -13,-89 -7,-22 -18,-42 -33,-60 -15,-17 -34,-31 -56,-40 -22,-10 -45,-15 -70,-15 -20,0 -39,3 -59,10 -19,7 -35,15 -47,25 -12,10 -24,25 -34,43 -10,19 -18,40 -24,62 -6,23 -8,43 -8,60 0,18 3,39 8,62 6,23 13,43 23,60 10,17 22,32 35,45 14,13 30,23 47,30 17,7 36,11 56,11zm-229 -206c0,-23 3,-42 8,-60 6,-17 15,-36 27,-57 13,-20 28,-38 46,-51 18,-14 43,-26 75,-36 22,-7 51,-11 85,-11 23,0 46,3 68,9 22,6 42,15 60,26 18,11 36,28 54,51 12,16 22,32 28,51 9,24 12,49 12,74 0,29 -3,53 -8,72 -6,19 -15,38 -28,57 -10,15 -28,31 -53,50 -17,13 -37,23 -62,31 -25,8 -52,12 -80,12 -29,0 -55,-3 -78,-10 -23,-7 -42,-15 -57,-25 -15,-10 -31,-24 -47,-43 -16,-19 -28,-40 -37,-63 -8,-23 -13,-48 -13,-76zm-397 -210c4,-1 7,-1 8,-1 7,0 20,0 37,1 9,0 15,0 19,0 5,0 15,0 30,-1l56 -3c15,-1 32,-2 51,-2 35,0 62,5 83,15 20,10 36,25 47,46 11,21 17,42 17,63 0,34 -12,64 -36,89 -24,25 -57,38 -98,38 -12,0 -21,-1 -29,-4 -8,-2 -17,-7 -27,-13 -4,-3 -7,-6 -8,-9 1,-2 2,-3 4,-3 3,0 6,1 9,2 8,3 17,4 29,4 17,0 34,-4 49,-13 15,-8 27,-20 35,-36 8,-16 12,-33 12,-50 0,-17 -4,-34 -12,-50 -8,-16 -20,-29 -33,-39 -7,-6 -19,-10 -35,-14 -16,-4 -28,-5 -37,-5 -27,0 -44,2 -49,6l0 5 1 37 0 7c0,6 -1,15 -1,27 0,45 1,73 2,84l0 19 4 150c0,2 0,6 -1,13 0,6 -1,11 -1,15 0,11 1,18 3,24 5,2 21,5 46,11 12,3 18,5 19,5 2,1 3,2 5,4 -1,3 -2,6 -4,6 -1,1 -4,2 -8,2 -2,0 -9,-1 -18,-2 -19,-2 -34,-3 -45,-3l-58 2 -35 -1c-2,0 -8,0 -19,1l0 -8 43 -8c7,-2 11,-4 13,-6 2,-3 3,-9 3,-18 0,-2 0,-6 0,-13 0,-5 0,-11 0,-19 0,-26 -1,-81 -3,-166 -1,-40 -1,-80 -1,-121l0 -6c0,-15 -2,-26 -7,-30 -8,-8 -29,-13 -61,-18 -1,-3 -1,-5 -1,-6 0,-2 1,-4 2,-6zm-301 -3c1,4 2,7 2,9 0,1 0,3 -1,6 -6,2 -10,2 -14,2 -2,0 -4,0 -8,0 -4,0 -7,0 -9,0 -10,0 -18,2 -24,6 -4,3 -6,6 -7,10l-3 38 1 163c0,60 2,97 6,112 4,15 10,27 19,36 9,10 22,18 40,24 18,6 35,9 52,9 37,0 66,-5 86,-16 20,-11 34,-26 43,-45 9,-19 13,-48 13,-87 0,-1 0,-10 -1,-27l0 -9c0,-3 0,-10 1,-21 0,-10 1,-16 1,-18l-5 -95c-2,-32 -4,-50 -6,-56 -2,-6 -5,-10 -9,-13 -8,-6 -25,-12 -49,-16 -1,-3 -2,-7 -2,-10 9,-1 17,-1 26,-1 9,0 18,0 28,1 14,1 22,1 24,1l52 -1 10 0 -1 12c-27,4 -43,8 -48,12 -5,5 -8,14 -8,26 0,7 0,22 1,44l2 68 0 27 1 34c0,44 -1,73 -4,88 -3,22 -8,39 -15,52 -7,13 -16,24 -28,34 -13,11 -29,19 -50,25 -21,7 -41,10 -61,10 -31,0 -54,-2 -68,-7 -25,-8 -46,-18 -60,-30 -15,-12 -26,-25 -31,-37 -8,-16 -12,-40 -12,-71l0 -23 -1 -92 1 -75 0 -51c0,-12 -2,-22 -5,-27 -3,-4 -6,-5 -11,-5l-20 0c-14,0 -24,-2 -28,-5 -1,-2 -1,-3 -1,-5 0,-2 1,-4 2,-5 2,-1 5,-2 9,-2l8 0 22 0 52 0 87 -1zm-474 198c6,0 10,0 13,0 16,0 34,-2 55,-6 15,-3 26,-7 35,-14 9,-6 17,-16 23,-29 6,-13 9,-26 9,-39 0,-15 -5,-31 -14,-48 -8,-13 -20,-23 -37,-32 -17,-9 -38,-13 -62,-13 -6,0 -14,0 -23,1 -1,11 -2,20 -2,26l2 62 0 26c0,17 0,39 1,65zm-122 216c32,-4 50,-6 54,-8 3,-1 6,-4 8,-10l0 -4c0,-5 1,-25 3,-60 0,-10 1,-19 1,-28l-1 -40 1 -44 0 -83 0 -59c0,-25 -2,-40 -6,-46 -4,-6 -15,-10 -31,-12 -17,-2 -26,-4 -28,-5 -2,-1 -3,-3 -3,-5 0,-2 0,-3 1,-6 2,-2 7,-3 15,-3 1,0 4,-1 9,-1 5,-1 10,-1 14,-1l27 0 87 -1c49,0 83,4 103,11 20,7 35,20 47,37 12,17 18,37 18,58 0,41 -21,72 -64,93 -7,4 -13,7 -17,10 7,16 18,35 31,57l42 72c17,26 28,43 35,50 6,7 14,12 23,17 9,4 24,8 46,13 0,2 0,4 0,5 0,1 0,3 0,5 -30,1 -66,1 -106,1 -3,0 -7,0 -12,-1 -16,-30 -34,-63 -55,-99l-49 -89c-7,-9 -12,-15 -16,-18 -5,-2 -10,-3 -17,-3l-28 0 -9 0c-1,7 -1,21 -1,43l0 113c0,4 1,10 3,17 2,4 5,8 9,10 4,2 17,6 37,11l13 4c2,2 3,5 3,9 -6,1 -10,2 -13,2 -20,0 -34,0 -42,-1 -4,0 -8,0 -10,0l-45 1 -44 0c-2,0 -12,0 -30,1l-6 -1 -1 -3c0,-2 1,-4 4,-7zm-100 -391l4 50c2,15 2,26 2,31l-9 2c-15,-33 -33,-58 -55,-75 -22,-17 -49,-25 -80,-25 -39,0 -69,5 -90,14 -31,13 -58,37 -80,70 -22,33 -33,73 -33,120 0,27 4,51 12,73 8,22 20,42 35,60 15,19 32,35 53,48 13,9 29,16 47,21 10,3 26,4 46,4 13,0 28,-2 44,-6 16,-4 28,-9 36,-15 8,-6 14,-13 17,-21 3,-8 4,-23 4,-46 0,-38 -3,-60 -8,-66 -5,-7 -21,-10 -48,-12l-13 -1 -9 0c-2,0 -3,-1 -5,-1l-5 -9c0,-1 1,-2 2,-4 12,-2 36,-3 75,-3 9,0 22,0 42,1l34 2 31 0c6,0 13,0 21,1 2,0 2,1 3,1 1,1 1,2 1,3 0,3 0,6 -1,9 -9,2 -16,3 -22,3l-21 0c-7,0 -13,2 -18,7 -2,3 -3,11 -3,25l0 43c0,29 -1,48 -3,57 -1,5 -4,9 -8,13 -4,4 -13,8 -26,14 -19,8 -37,13 -52,15 -29,5 -57,8 -84,8 -44,0 -79,-6 -107,-17 -28,-11 -52,-26 -72,-46 -20,-20 -34,-40 -43,-60 -13,-30 -19,-60 -19,-91 0,-38 10,-76 30,-113 20,-37 53,-67 99,-90 32,-16 75,-24 130,-24 38,0 69,3 93,10 24,7 43,14 57,22z"/>
   <path class="fil1" d="M5187 9095l48 -128c7,14 15,34 26,60 11,26 19,49 26,69l-8 0c-9,0 -40,0 -91,-1zm-156 186l6 0c15,0 31,-1 47,-4l14 -3c52,4 84,6 98,6 1,-3 1,-5 1,-8 0,-3 0,-8 0,-17 -14,-2 -22,-3 -24,-4 -14,-2 -24,-4 -29,-9 -3,-2 -4,-7 -4,-12 0,-4 2,-12 6,-24 15,-41 24,-67 29,-78l126 0 26 65 13 33c1,3 2,6 2,9 0,3 -1,5 -3,8 -2,2 -8,4 -19,7l-37 8c-1,7 -1,15 -1,22l16 -1 56 -3c8,-1 21,-1 38,-1 16,0 33,1 53,2 20,2 37,2 54,2 0,-3 0,-6 0,-7 0,-4 -1,-9 -2,-16 -10,-4 -20,-7 -29,-8 -9,-1 -15,-3 -19,-7 -2,-1 -5,-7 -10,-16 -8,-17 -14,-31 -18,-42 -8,-21 -14,-36 -18,-47 -7,-17 -16,-39 -27,-67 -10,-27 -22,-56 -35,-84l-57 -136 -3 -6 -15 0 -21 0 -78 205 -67 175c-5,10 -10,16 -14,19 -4,3 -14,6 -31,9 -11,2 -18,4 -22,5l-1 23zm-371 -447c-2,4 -4,13 -8,26 -12,43 -22,71 -28,86 3,3 9,7 20,13 3,0 7,-4 12,-11 19,-25 33,-40 43,-45 7,-4 21,-6 42,-6 38,0 60,1 67,2 2,0 4,1 5,2 1,1 2,2 3,4 1,7 2,28 2,62l2 125c0,57 -1,100 -2,126 0,7 -2,12 -4,16 -9,5 -25,10 -48,15 -14,3 -23,8 -27,14l0 3 0 8c0,2 0,4 1,8 4,0 12,0 24,-1 32,-3 52,-4 58,-4 42,0 71,1 86,2 16,1 35,2 58,2 3,0 7,0 12,0 1,-4 1,-7 1,-9 0,-2 -1,-6 -2,-15 -5,-2 -11,-4 -18,-5 -15,-4 -23,-5 -25,-5 -10,-2 -16,-3 -19,-4 -3,-8 -4,-19 -4,-34l0 -43 -1 -105 0 -97 0 -44c0,-5 1,-12 2,-21 9,-1 17,-2 23,-2 42,0 65,1 70,2 3,1 7,3 9,6 2,2 6,11 13,27 7,16 13,29 19,37 7,-1 15,-3 24,-6 1,-4 1,-9 1,-15l0 -17 0 -30c0,-31 0,-54 0,-69 -4,0 -7,0 -10,0l-15 0c-2,4 -3,6 -4,8 -3,9 -6,14 -9,16l-19 3 -102 0 -75 0 -40 0 -7 1c-13,0 -28,0 -45,0 -27,0 -42,0 -45,-1 -3,-3 -8,-11 -14,-21 -1,-1 -2,-3 -3,-5l-20 0zm-102 28c-21,-7 -37,-12 -50,-14 -21,-4 -36,-6 -47,-6 -49,0 -86,12 -111,37 -25,25 -38,54 -38,90 0,17 4,35 13,54 9,19 22,34 37,45 16,11 44,24 84,38 40,14 66,26 75,34 16,14 23,29 23,45 0,14 -4,26 -13,37 -9,12 -20,20 -35,25 -14,5 -27,8 -39,8 -13,0 -26,-2 -37,-6 -11,-4 -21,-10 -29,-17 -8,-7 -16,-16 -23,-27 -3,-5 -10,-20 -20,-45l-31 1 0 12c0,6 0,16 1,30 1,28 2,43 2,45l0 4c1,3 2,5 3,6 3,3 10,5 21,8l40 12c21,4 40,7 55,7 23,0 43,-2 57,-6 15,-4 29,-10 43,-19 14,-9 24,-17 31,-24 9,-9 16,-19 20,-30 8,-20 12,-40 12,-61 0,-19 -3,-35 -7,-47 -5,-13 -14,-26 -27,-40 -10,-11 -25,-20 -44,-29 -19,-9 -35,-15 -49,-19 -40,-12 -66,-24 -79,-37 -12,-13 -19,-26 -19,-41 0,-17 6,-31 19,-42 13,-11 30,-17 52,-17 23,0 42,9 59,27 10,10 20,30 29,59l4 1 24 2 3 -1c1,-5 1,-9 1,-13 0,-13 -1,-30 -4,-53 -2,-15 -4,-26 -6,-34zm-521 419c4,0 14,-1 28,-2 22,-2 39,-3 51,-3l58 1c26,3 41,4 44,5 4,1 7,1 9,1 1,0 5,0 12,-1 2,0 4,0 7,0 0,-5 0,-9 0,-12 0,-4 -1,-10 -1,-16 -12,-2 -18,-3 -20,-3 -11,-1 -23,-3 -37,-6 -1,-3 -2,-6 -2,-8l1 -13 -1 -66 1 -44 0 -87c0,-20 0,-49 1,-86 -1,-6 -1,-14 -1,-23 0,-11 1,-19 2,-25 7,-3 17,-6 28,-8 11,-3 21,-6 30,-9 1,-6 1,-11 1,-14 0,-3 0,-7 0,-11 -4,0 -15,1 -30,2 -29,2 -50,3 -62,3 -3,0 -10,0 -22,-1l-94 -4 1 29c2,1 6,1 11,1 20,1 35,4 44,8 1,5 2,8 2,10l1 15 2 37 -1 18 1 44c0,1 -1,24 -3,67l0 18 -1 76 1 39c0,12 -2,22 -6,29 -7,4 -18,8 -32,11 -10,2 -17,4 -22,6l0 24zm-323 -235l0 -9c0,-16 0,-29 1,-39l0 -36 1 -27 -1 -45 1 -6c7,-1 16,-2 26,-2 21,0 37,2 47,5 13,5 24,11 32,20 6,6 11,15 14,27 4,12 6,25 6,39 0,23 -8,41 -23,54 -16,13 -42,20 -80,20 -5,0 -13,0 -23,-1zm-149 214c-1,4 -1,8 -1,10 0,1 0,5 1,10l14 0c11,0 24,-1 38,-2l45 -3c3,0 7,0 12,0 9,0 37,2 84,6l13 -1c1,0 4,0 8,0 1,-6 1,-14 1,-24 -12,-5 -27,-9 -44,-13 -10,-2 -18,-5 -24,-8l2 -62 -2 -74c0,-8 0,-16 1,-23 10,-1 18,-1 22,-1 16,0 28,2 34,7 4,3 12,15 23,37 24,47 40,81 50,103 4,8 10,20 20,37l11 22c3,-1 8,-1 14,-2 13,-1 21,-2 23,-2l33 0c10,0 19,1 26,2l14 0 17 2 7 0 9 0c0,-3 0,-6 0,-8 0,-3 -1,-6 -2,-10 -5,-4 -13,-8 -23,-11 -13,-5 -21,-9 -25,-13 -4,-4 -13,-17 -26,-40l-53 -86c-6,-9 -13,-21 -23,-34 -4,-6 -8,-12 -11,-16 30,-9 52,-23 67,-41 14,-18 21,-38 21,-61 0,-30 -13,-56 -40,-79 -26,-23 -63,-35 -108,-35 -29,0 -56,2 -82,4l-41 2 -17 1c-1,0 -10,-1 -26,-2 -15,0 -26,1 -31,1 -10,0 -20,1 -30,3l-1 4 1 20c6,1 18,2 35,3l20 4c1,13 2,42 2,88 0,21 0,43 -1,67l-1 18 1 31 -1 40 0 74c0,18 0,29 -1,32 0,2 -1,5 -2,10 -9,3 -19,6 -31,7 -11,1 -20,4 -25,7zm-326 -166l48 -128c7,14 15,34 26,60 11,26 19,49 26,69l-8 0c-9,0 -40,0 -91,-1zm-156 186l6 0c15,0 30,-1 47,-4l14 -3c52,4 84,6 98,6 0,-3 1,-5 1,-8 0,-3 0,-8 0,-17 -14,-2 -22,-3 -24,-4 -14,-2 -24,-4 -29,-9 -3,-2 -5,-7 -5,-12 0,-4 2,-12 6,-24 15,-41 24,-67 29,-78l126 0 26 65 13 33c1,3 2,6 2,9 0,3 -1,5 -3,8 -2,2 -8,4 -19,7l-37 8c-1,7 -1,15 -1,22l16 -1 56 -3c8,-1 20,-1 37,-1 16,0 34,1 53,2 19,2 38,2 54,2 0,-3 0,-6 0,-7 0,-4 0,-9 -2,-16 -10,-4 -20,-7 -29,-8 -9,-1 -15,-3 -19,-7 -2,-1 -6,-7 -10,-16 -8,-17 -14,-31 -18,-42 -8,-21 -14,-36 -18,-47 -8,-17 -16,-39 -27,-67 -11,-27 -22,-56 -35,-84l-58 -136 -3 -6 -15 0 -21 0 -79 205 -67 175c-5,10 -10,16 -13,19 -4,3 -14,6 -31,9 -11,2 -18,4 -22,5l-1 23zm-595 0l1 -23c27,-3 45,-9 53,-17 5,-5 9,-19 11,-41l4 -118 5 -120c0,-7 1,-12 1,-13 0,-31 -2,-49 -5,-54 -4,-5 -18,-10 -42,-14 -6,-1 -11,-2 -15,-3 -1,-5 -1,-10 -1,-14l0 -11c8,0 18,-1 29,-1l97 3c2,0 5,1 9,1l15 0c4,5 8,10 11,17 8,16 19,40 32,71l4 9 51 112c1,3 3,7 6,12 3,8 7,15 10,22 3,7 7,15 11,24 4,8 8,16 11,23 3,-5 6,-11 9,-17 9,-20 17,-39 26,-56 15,-30 34,-76 59,-138 4,-10 10,-25 20,-45 9,-20 14,-31 15,-32 2,-2 6,-3 12,-3 2,0 6,0 10,0 12,-1 26,-2 41,-2 23,0 42,-1 56,-2 14,-1 22,-2 24,-2 2,0 5,0 8,1 0,3 0,6 0,7l-1 10c0,2 0,5 0,9 -21,3 -38,7 -51,14 -9,5 -14,10 -14,17l0 5 6 101c1,9 2,55 5,138 1,18 2,42 4,70 0,3 1,6 1,8 0,5 1,9 3,10 2,2 22,8 59,19 0,4 0,6 0,8 0,5 0,9 0,14 -6,0 -21,-1 -45,-3 -24,-3 -47,-4 -68,-4 -32,0 -63,1 -93,4 -4,1 -8,1 -12,1l1 -23c9,-4 21,-7 36,-9 10,-2 17,-5 20,-9 3,-4 4,-16 4,-35 0,-7 0,-14 0,-19 -1,-23 -2,-55 -2,-96l-5 -117c-1,-17 -2,-28 -2,-34l-82 189c-2,4 -5,11 -9,19 -5,11 -9,18 -10,22 -17,41 -29,72 -36,94 -2,5 -4,13 -8,22l-26 -1 -18 -50c-5,-13 -14,-33 -27,-60 -8,-16 -13,-28 -18,-38 -2,-4 -4,-7 -4,-9l-4 -8c0,-1 0,-2 -1,-3l-49 -106 -30 -65 -3 157 -2 102c0,17 3,29 9,36 6,7 20,13 41,18l16 4 0 24c-13,0 -27,-1 -41,-3 -14,-1 -34,-2 -58,-2 -5,0 -27,1 -65,3z"/>
   <polygon class="fil1" points="5506,8420 20,8420 20,8389 5506,8389 "/>
   <path class="fil2" d="M0 7959l0 -1211 441 0 0 147 -273 0 0 407 273 0 0 147 -18 0 -255 0 0 510 -168 0zm441 -1211l14 0c76,0 131,2 170,9 39,7 74,18 103,37 51,25 90,67 117,119 25,53 39,113 39,184 0,69 -14,129 -39,179 -28,51 -67,92 -119,124 -28,16 -64,30 -103,37 -37,7 -99,11 -182,11l0 -147 9 0c99,0 168,-16 207,-46 39,-30 57,-83 57,-159 0,-71 -18,-124 -57,-154 -39,-32 -103,-48 -193,-48l-23 0 0 -147z"/>
   <path class="fil2" d="M1066 7499l0 -751 168 0 0 754c0,113 25,198 76,250 53,55 131,83 239,83 108,0 186,-28 239,-83 53,-55 78,-138 78,-250l0 -754 170 0 0 751c0,163 -44,285 -129,370 -85,83 -211,124 -377,124 -156,0 -271,-41 -349,-124 -76,-83 -115,-205 -115,-370z"/>
   <path class="fil2" d="M3146 7509l163 0c-7,147 -60,267 -154,354 -97,87 -221,131 -372,131 -172,0 -308,-57 -407,-175 -99,-117 -149,-278 -149,-483 0,-191 53,-342 156,-453 103,-113 244,-168 418,-168 140,0 255,34 345,106 90,71 140,168 154,289l-163 0c-16,-80 -55,-142 -113,-184 -60,-44 -136,-64 -230,-64 -124,0 -221,41 -289,129 -71,85 -106,207 -106,365 0,147 37,267 108,356 74,90 168,133 285,133 101,0 186,-30 250,-92 64,-62 99,-145 103,-246z"/>
   <path class="fil2" d="M3495 7959l0 -1211 441 0 0 147 -273 0 0 407 273 0 0 147 -18 0 -255 0 0 510 -168 0zm441 -1211l14 0c74,0 131,2 170,9 39,7 74,18 103,37 51,25 90,67 115,119 28,53 41,113 41,184 0,69 -14,129 -41,179 -25,51 -64,92 -117,124 -30,16 -64,30 -106,37 -37,7 -96,11 -179,11l0 -147 9 0c99,0 168,-16 204,-46 39,-30 60,-83 60,-159 0,-71 -18,-124 -57,-154 -39,-32 -103,-48 -195,-48l-21 0 0 -147z"/>
   <path class="fil2" d="M4566 6748l453 0 0 142 -287 0 0 409 287 0 0 140 -12 0 -273 0 0 519 -168 0 0 -1211zm453 0l30 0c76,0 133,2 170,9 37,7 71,18 99,32 53,28 92,67 119,117 28,51 41,108 41,177 0,64 -14,122 -44,168 -28,46 -71,83 -126,108 48,14 83,37 103,67 18,32 32,85 37,159l14 200c5,44 9,76 18,96 9,21 21,37 39,46l0 32 -195 0c-14,-25 -25,-78 -32,-161l0 -5 -9 -159c-7,-83 -23,-133 -53,-159 -30,-23 -101,-34 -211,-37l0 -140c106,0 179,-16 221,-48 44,-32 64,-87 64,-165 0,-71 -18,-122 -60,-152 -41,-30 -115,-44 -225,-44l0 -142z"/>
   <path class="fil3" d="M425 3881c-37,0 -73,9 -108,30 -106,57 -140,191 -80,292 39,69 113,106 188,106l0 -67c-51,0 -101,-25 -129,-74 -41,-69 -18,-159 55,-200 23,-14 48,-18 73,-18l0 -69zm0 -441c-62,67 -76,168 -28,248 9,14 18,28 28,37l0 -285zm0 -237l0 69c-5,2 -9,7 -16,9 -168,97 -227,308 -129,476l2 2 0 2 2 0 0 2c2,2 5,7 7,9 -16,7 -30,14 -44,21 -170,97 -227,310 -131,476 67,110 186,172 308,175l0 62c-145,0 -287,-74 -363,-205 -37,-60 -53,-124 -57,-186l0 -37c7,-131 76,-257 198,-331 -85,-191 -12,-416 175,-522 16,-9 32,-16 48,-23zm0 -616l0 126 -28 46 28 16 0 74 -117 -64 117 -198zm0 -287l0 195 -87 -48 87 -147zm0 -806l0 149c-28,-41 -32,-96 -5,-142 0,-2 2,-5 5,-7zm163 2911l0 71c-53,21 -108,30 -163,30l0 -62c55,0 110,-14 163,-39zm0 -453l0 287c-16,16 -32,30 -53,41 -34,18 -74,28 -110,28l0 -67c25,0 51,-7 76,-18 71,-41 97,-131 55,-200 -28,-48 -78,-74 -131,-74l0 -69c62,2 120,25 163,71zm0 -584l0 67c-25,0 -53,7 -76,21 -71,39 -97,129 -55,200 28,46 78,74 131,74l0 67c-62,0 -122,-25 -163,-71l0 -285c16,-16 32,-32 53,-44 34,-18 74,-28 110,-28zm0 -198l0 64c-55,0 -110,11 -163,37l0 -69c53,-23 108,-32 163,-32zm0 -478l-83 -48 -78 131 -2 0 0 74 25 16 78 -133 30 18 -78 131 108 60 0 -74 -18 -9 18 -32 0 -133zm0 -533l0 85 -32 -18 -115 193 62 34 85 -142 0 129 -163 273 0 -126 41 -69 -41 -23 0 -195 103 -172 0 -2 60 34zm0 -136l0 53 -23 -14 23 -39zm0 -349l-80 -46c-34,-18 -46,-60 -28,-94l0 2c21,-34 62,-46 96,-25l12 5 0 -71c-60,-23 -126,-5 -163,48l0 149c12,16 25,30 44,39l119 67 0 -74zm0 1151l60 -101 -60 -32 0 133zm0 1413l0 -287c9,11 18,23 25,37 51,83 37,184 -25,250zm163 269l0 76c-51,-30 -96,-71 -131,-124 -12,5 -21,11 -32,16l0 -71c5,-2 9,-5 14,-9 16,-7 30,-16 44,-28 5,14 12,28 21,41 23,39 53,71 85,99zm0 -1066l0 280c-14,18 -32,32 -55,46 -35,18 -71,28 -108,28l0 -67c25,0 51,-7 74,-21 71,-39 96,-131 55,-200 -28,-46 -78,-74 -129,-74l0 -67c62,0 122,25 163,73zm0 -239l0 71c-51,-25 -106,-39 -163,-39l0 -64c55,0 113,12 163,32zm0 -418l0 149 -11 21 11 7 0 73 -101 -57 78 -131 -28 -18 -78 133 -35 -21 0 -74 9 7 78 -133 76 44zm0 -214l0 115 -51 -30 51 -85zm0 -269l0 30 -11 -9 11 -21zm-163 -786l163 94 0 -74 -147 -85c-5,-2 -12,-5 -16,-7l0 71zm163 250l-163 -92 0 74 122 69 -122 207 0 53 41 23 62 37 -37 62 -67 -39 0 85 30 18 -30 48 0 129 163 -280 0 -126 -23 39 -62 -34 85 -145 0 -126zm0 1167l67 -113 -67 -37 0 149zm0 788c60,-67 74,-165 25,-248 -7,-12 -16,-23 -25,-32l0 280zm223 859l0 64c-78,0 -156,-21 -223,-62l0 -76c64,48 142,74 223,74zm0 -561l0 69c-28,0 -53,5 -76,18 -71,41 -96,131 -55,200 28,48 78,74 131,74l0 67c-76,0 -149,-37 -191,-106 -60,-103 -23,-234 80,-292 35,-21 71,-30 110,-30zm0 -142l0 9 -18 0 18 -9zm0 -462l0 303 -87 51c69,-106 78,-246 9,-363 -35,-57 -85,-103 -145,-133l0 -71c83,34 154,92 200,172 9,14 16,28 23,41zm0 -508l0 37 -62 106 28 16 35 -55 0 129 -9 14 -142 -80 78 -131 -30 -16 -78 131 -41 -23 0 -73 18 9 78 -133 126 71zm0 -712l0 101 -108 -60 -37 62 117 69 -156 264 67 37 117 -198 0 126 -62 103 -32 55 -57 -32 -71 -39 0 -115 108 -179 -108 -60 0 -30 21 -34 67 -113 5 -5 117 67 14 -21zm-35 -480l-69 117 -119 -67 0 126 23 -39 62 34 -85 145 0 126 223 -375 0 -124 -223 -124 0 74 188 106zm35 1229l14 -28 -14 -9 0 37zm191 1583l0 74c-62,30 -126,44 -191,44l0 -64c60,2 122,-14 177,-46 5,-2 9,-5 14,-7zm0 -398l0 207c-18,34 -46,62 -83,83 -34,18 -71,28 -108,28l0 -67c25,0 51,-7 74,-18 71,-41 96,-131 55,-202 -28,-46 -78,-71 -129,-71l0 -69c74,0 147,39 188,108l2 2zm0 -361l0 74 -25 14c9,2 16,7 25,12l0 74c-57,-37 -124,-55 -191,-55l0 -9 80 -46 21 -12 90 -51zm0 -232l0 74 -179 101 -12 7 0 -303c30,69 39,142 32,211l159 -90zm0 -850l0 129 -7 9 7 2 0 85 -44 -25 -147 253 0 -129 191 -324zm0 -271l-32 55 -120 -67 -32 55 -7 12 0 126 62 -106 119 67 9 -14 0 -129zm0 -237l0 97 -25 41 25 14 0 74 -115 -64 67 -115 -64 -37 -67 115 -12 -7 0 -101 55 -94 55 32 67 37 14 9zm0 -503l0 74 -87 -48c-25,-14 -51,-9 -64,16l-39 67 0 -124 2 2c37,-32 92,-39 133,-16l55 30zm0 600l0 -97 41 23 -32 55 -9 18zm0 269l94 -161 -94 -53 0 74 5 2 -5 9 0 129zm0 1792c34,-62 37,-140 0,-207l0 207zm159 -41l0 168c-34,51 -83,94 -140,126 -7,5 -12,7 -18,12l0 -74c85,-53 140,-138 159,-232zm0 -292l0 165c-9,-37 -21,-74 -41,-110 -30,-48 -71,-90 -117,-117l0 -74c62,30 117,76 159,136zm0 -324l0 74 -159 90 0 -74 159 -90zm0 -232l0 76 -159 87 0 -74 159 -90zm0 -761l-103 172 -55 -32 0 85 83 46 76 -124 0 -147zm0 -269l0 129 -14 21 14 7 0 85 -51 -28 -108 184 0 -129 159 -269zm0 -653l0 74 -159 -90 0 -74 159 90zm216 873l-103 0 -113 -64 0 85 11 7 -11 21 0 147 53 -92 0 676 -53 30 0 76 53 -32 0 159 -53 30 0 74 53 -30 0 393c-9,-30 -23,-60 -39,-87 -5,-9 -9,-16 -14,-25l0 165c5,30 7,60 5,90 -2,11 -2,25 -5,37l0 168c30,-44 51,-92 60,-142 21,175 73,338 156,485l0 -145c-62,-147 -96,-306 -99,-473l-51 0 51 0 0 -1484 99 0 0 -64zm0 -588l0 129 -14 23 14 9 0 74 -46 -25 -108 182 62 34 92 -159 0 159 -2 -5 -62 106 -2 0 -126 -71 -23 41 0 -129 216 -368zm0 -161l0 74 -216 -124 0 -74 216 124zm35 2842l0 131c-11,-18 -23,-39 -35,-57l0 -145c12,23 23,46 35,71zm0 -2029l-35 0 0 -64 35 0 0 64zm0 -64zm0 -407l0 175 -2 7 2 5 0 96c-11,-14 -23,-25 -35,-39l0 -159 16 -23 -16 -9 0 -74 35 21zm0 -241l0 129 -35 60 0 -129 35 -60zm0 -83l0 74 -35 -18 0 -74 35 18zm67 2939l0 113c-23,-32 -46,-64 -67,-97l0 -131c21,39 44,78 67,115zm0 -2144l-67 0 0 -64 67 0 0 64zm0 -64zm0 -149l0 90c-23,-21 -44,-44 -67,-64l0 -96c21,25 44,48 67,71zm0 -221l0 74 -21 -11 -46 76 0 -175 67 37zm0 -324l0 62 -14 23 14 7 0 74 -46 -25 -21 35 0 -129 5 -7 -5 -2 0 -74 67 37zm0 62l28 -46 -28 -16 0 62zm227 3104l0 83c-85,-69 -161,-147 -227,-234l0 -113c64,97 140,186 227,264zm0 -1684l0 1133 -225 -131 0 -1130 225 129zm0 -788l0 64 -227 0 0 -64 71 0c-25,-18 -48,-39 -71,-60l0 -90c55,55 115,106 177,149l51 0zm0 -241l0 74 -227 -129 0 -74 227 129zm0 -965l0 156c-2,5 -5,9 -5,14l5 0 0 67 -32 0c-18,44 -32,87 -48,133 28,14 53,25 80,37l0 74c-34,-14 -67,-28 -99,-44 -16,64 -30,129 -41,193l140 0 0 67 -64 0 64 37 0 74 -227 -129 0 -74 21 12c37,-214 108,-423 207,-616zm505 3952l0 67c-188,-51 -358,-138 -505,-257l0 -83c142,126 315,221 505,273zm0 -1668l-505 -290 0 1133 505 287 0 -1130zm0 -699l0 597 -246 -140 0 -597 246 140zm0 -379l-76 0 -430 -241 0 74 299 168 -299 0 0 64 505 0 0 -64zm0 -577l0 67 -140 0c-5,78 -28,147 -64,207l204 115 0 74 -505 -285 0 -74 246 138c30,-51 48,-108 55,-175l-301 0 0 -67 505 0zm0 -152l0 67c-41,5 -83,7 -124,7 -129,0 -262,-25 -381,-71l0 -74c119,51 253,78 381,78 41,0 83,-2 124,-7zm0 -241l-505 0 0 -67 505 0 0 67zm0 -67zm0 -820l0 94c-30,28 -57,55 -85,85 25,21 55,39 85,51l0 71c-48,-16 -92,-39 -131,-74 -35,39 -69,78 -101,119l232 0 0 67 -280 0c-46,64 -90,131 -129,200 129,67 269,97 409,85l0 67c-152,12 -303,-21 -439,-97 -23,46 -46,90 -67,138l0 -156c126,-244 299,-464 505,-650zm283 4650l0 64c-97,-5 -193,-21 -283,-46l0 -67c90,25 186,41 283,48zm0 -1556l-283 -161 0 1130 283 163 0 -1133zm0 -696l0 600 -283 -165 0 -597 283 163zm0 -850l0 186c-12,23 -25,48 -39,71l39 23 0 92 -283 0 0 -64 202 0 -202 -115 0 -74 182 103c44,-71 78,-145 101,-223zm0 -202l-283 0 0 -67 283 0 0 67zm0 -67zm0 -230l0 74c-90,37 -186,60 -283,71l0 -67c97,-14 193,-39 283,-78zm0 -163l-283 0 0 -67 283 0 0 67zm0 -67zm0 -195l0 71c-92,39 -186,64 -283,69l0 -67c97,-7 193,-30 283,-74zm0 -211l-283 0 0 -67 283 0 0 67zm0 -67zm0 -145l0 76c-87,44 -191,53 -283,23l0 -71c92,37 198,28 283,-28zm0 -986l0 64 0 202 -67 0 -142 0 0 138 209 0 0 200 0 64 -30 0c-90,64 -175,133 -253,209l0 -94c69,-60 140,-120 216,-172l0 -142 -168 0 -41 0 0 -267 67 0 142 2 0 -140 0 -64 67 0zm0 3782l0 -600 28 14 0 600 -28 -14zm0 1229l0 -1133 30 18 0 1130 -30 -16zm149 423l0 64c-25,0 -51,2 -76,2 -25,0 -48,-2 -74,-2l0 -64c25,0 48,2 74,2 25,0 51,-2 76,-2zm0 -1556l0 1133 -30 16 0 -1130 30 -18zm0 -699l0 600 -30 16 0 -600 30 -16zm0 -567l0 92 -149 0 0 -92 51 28 51 0 48 -28zm0 -549l0 67 -39 0c5,69 18,138 39,202l0 184c-32,-64 -55,-133 -74,-202 -18,69 -44,138 -76,204l0 -186c21,-64 34,-133 39,-202l-39 0 0 -67 149 0zm0 -225l0 74c-28,-12 -53,-23 -78,-34 -23,9 -46,21 -71,30l0 -74c25,-9 48,-21 71,-34 25,14 50,28 78,39zm0 -168l-149 0 0 -67 149 0 0 67zm0 -67zm0 -191l0 69c-28,-12 -53,-25 -78,-39 -23,14 -46,25 -71,37l0 -71c25,-12 48,-23 71,-37 25,14 50,28 78,41zm0 -216l-149 0 0 -67 149 0 0 67zm0 -67zm0 -140l0 76c-30,-14 -53,-32 -78,-53 -23,18 -46,34 -71,48l0 -76c25,-18 51,-39 71,-64 23,28 48,51 78,69zm0 -586l0 264 -149 0 0 -64 140 0 0 -200 9 0zm0 -404l0 267 -9 0 0 -202 -140 0 0 -64 149 0zm283 5386l0 67c-92,25 -186,39 -283,46l0 -64c96,-7 193,-23 283,-48zm0 -1668l-283 161 0 1133 283 -163 0 -1130zm0 -701l0 600 -283 163 0 -600 283 -163zm0 -565l0 74 -202 115 202 0 0 64 -283 0 0 -92 39 -23c-14,-23 -28,-48 -39,-74l0 -184c23,78 57,152 101,223l182 -103zm0 -322l-283 0 0 -67 283 0 0 67zm0 -67zm0 -152l0 67c-96,-9 -193,-32 -283,-67l0 -74c90,37 186,62 283,74zm0 -241l-283 0 0 -67 283 0 0 67zm0 -67zm0 -119l0 67c-96,-7 -191,-30 -283,-69l0 -69c90,41 186,64 283,71zm0 -287l-283 0 0 -67 283 0 0 67zm0 -67zm0 -122l0 71c-92,34 -195,28 -283,-14l0 -76c85,53 191,60 283,18zm0 -216l0 94c-83,-78 -170,-152 -262,-218l-21 0 0 -264 200 0 0 -138 -145 0 -55 0 0 -267 55 0 0 64 0 140 145 -2 64 0 0 267 -41 0 -168 0 0 142c80,57 156,117 227,182zm0 2824l244 -140 0 -597 -244 138 0 600zm503 1493l0 85c-145,117 -317,207 -503,257l0 -67c188,-55 361,-149 503,-276zm0 -1680l0 1130 -503 287 0 -1130 503 -287zm0 -1032l-427 241 -76 0 0 64 503 0 0 -64 -296 0 296 -168 0 -74zm0 -335l0 67 -299 0c7,67 25,124 55,175l244 -136 0 73 -503 283 0 -74 204 -115c-37,-60 -60,-129 -67,-207l-138 0 0 -67 503 0zm0 -225l0 74c-122,46 -257,74 -388,74 -37,0 -76,-2 -115,-7l0 -67c39,5 78,7 115,7 131,0 266,-30 388,-80zm0 -388l0 221 -503 0 0 -67 501 0c-23,-53 -46,-101 -71,-152 -136,74 -283,106 -430,99l0 -67c136,7 273,-21 398,-87 -39,-71 -83,-138 -129,-202l0 2 -269 0 0 -67 221 0c-32,-41 -64,-80 -101,-119 -35,32 -76,55 -120,69l0 -71c28,-12 53,-28 76,-46 -25,-25 -51,-51 -76,-76l0 -94c207,188 377,411 503,657zm0 3111l0 -1130 227 -131 0 1130 -227 131zm294 170l0 131c-80,126 -179,239 -294,333l0 -85c119,-106 221,-237 294,-379zm0 -2321l0 97c-46,48 -94,92 -145,133l145 0 0 64 -294 0 0 -64 41 0c94,-67 179,-142 253,-230zm0 -177l-294 165 0 74 250 -140 44 71 0 -170zm0 -322l0 74 -2 0 2 5 0 129 -18 -32 -276 156 0 -73 67 -39 -67 0 0 -67 133 0c-12,-64 -25,-129 -44,-191 -28,14 -60,28 -90,39l0 -74c23,-9 48,-21 71,-32 -14,-46 -30,-92 -46,-136l-25 0 0 -221c96,191 165,395 200,604l41 -23 -39 -69 92 -51zm37 2741l0 145c-11,23 -25,44 -37,64l0 -131c12,-28 25,-53 37,-78zm0 -1948l-37 0 0 -64 37 0 0 64zm0 -64zm0 -427l0 74 -16 9 16 23 0 147c-14,14 -25,28 -37,41l0 -97 0 -2 0 -5 0 -170 37 -21zm0 -161l0 129 -37 -62 0 -129 37 62zm0 -161l0 74 -37 21 0 -74 37 -21zm216 685l-115 64 -101 0 0 64 94 0 0 1484 53 0 -53 0c-2,163 -35,319 -94,464l0 145c80,-147 136,-312 152,-489 11,55 32,108 64,156l0 -168c-2,-11 -2,-25 -5,-37 -2,-30 0,-60 5,-90l0 -165c-5,9 -9,16 -14,25 -21,32 -34,67 -44,101l0 -409 57 32 0 -74 -57 -32 0 -159 57 35 0 -74 -57 -34 0 -680 57 99 0 -147 -11 -21 11 -7 0 -85zm0 -156l0 129 -23 -41 -129 71 -64 -113 0 -147 92 159 62 -34 -108 -182 -46 25 0 -74 14 -9 -14 -23 0 -129 216 368zm0 -653l0 74 -216 124 0 -74 216 -124zm159 2762l0 74c-7,-5 -11,-7 -18,-12 -57,-32 -106,-76 -140,-126l0 -168c18,94 74,179 159,232zm0 -398c-37,67 -34,145 0,207l0 -207zm0 -262l0 74c-46,28 -87,69 -117,117 -21,37 -35,74 -41,110l0 -165c41,-60 97,-106 159,-136zm0 -99l0 74 -159 -90 0 -74 159 90zm0 -232l0 74 -159 -87 0 -74 159 87zm0 -710l0 85 -83 46 -76 -124 0 -147 103 172 55 -32zm0 -140l-159 -269 0 129 14 21 -14 7 0 85 51 -28 108 184 0 -129zm0 -356l0 74 -5 2 5 9 0 129 -94 -161 94 -53zm0 -152l0 97 -9 -18 -32 -55 41 -23zm0 -503l0 74 -159 90 0 -74 159 -90zm191 2904l0 64c-64,0 -129,-14 -191,-44l0 -74c5,2 9,5 14,7 55,32 117,48 177,46zm0 -561l0 69c-51,0 -101,25 -129,71 -41,71 -16,161 55,202 23,11 48,18 74,18l0 67c-37,0 -74,-9 -108,-28 -37,-21 -64,-48 -83,-83l0 -207 2 -2c41,-69 113,-108 188,-108zm0 -142l0 9c-67,0 -133,18 -191,55l0 -74c9,-5 16,-9 25,-12l-25 -14 0 -74 90 51 21 12 80 46zm0 -462l0 303 -11 -7 -179 -101 0 -74 159 90c-7,-69 2,-142 32,-211zm0 -404l-191 -324 0 129 5 9 -5 2 0 85 44 -25 147 253 0 -129zm0 -103l0 37 -16 -28 16 -9zm0 -437l-7 -12 -32 -55 -119 67 -32 -55 0 129 9 14 119 -67 62 106 0 -126zm0 -276l0 101 -11 7 -67 -115 -67 37 69 115 -115 64 0 -74 25 -14 -25 -41 0 -97 14 -9 67 -37 55 -32 55 94zm0 -535l0 124 -39 -67c-16,-25 -39,-30 -64,-16l-87 48 0 -74 55 -30c41,-23 96,-16 133,16l2 -2zm0 2226l0 -9 18 9 -18 0zm0 561l0 -67c53,0 103,-25 131,-74 41,-69 16,-159 -55,-200 -23,-14 -51,-18 -76,-18l0 -69c39,0 76,9 110,30 103,57 140,188 80,292 -41,69 -115,106 -191,106zm223 60l0 76c-67,41 -145,62 -223,62l0 -64c80,0 159,-25 223,-74zm0 -1066c-9,9 -18,21 -25,32 -48,83 -34,182 25,248l0 -280zm0 -239l0 71c-60,30 -110,76 -145,133 -69,117 -60,257 9,363l-87 -51 0 -303c7,-14 14,-28 23,-41 46,-80 117,-138 200,-172zm0 -241l-18 9 -78 -133 -126 71 0 37 62 106 -28 16 -34 -55 0 129 9 14 142 -80 -78 -131 30 -16 78 131 41 -23 0 -73zm0 -177l0 149 -67 -113 67 -37zm0 -483l-21 -34 -67 -113 -5 -5 -119 67 -12 -21 0 101 108 -60 37 62 -120 69 159 264 -67 37 -117 -198 0 126 62 103 32 55 55 -32 73 -39 0 -115 -108 -179 108 -60 0 -30zm0 -765l0 74 -188 106 69 117 120 -67 0 126 -23 -39 -64 34 87 145 0 126 -223 -375 0 -124 223 -124zm0 795l12 -9 -12 -21 0 30zm0 354l0 -115 48 85 -48 30zm163 1719l0 71c-12,-5 -23,-11 -32,-16 -35,53 -81,94 -131,124l0 -76c32,-28 62,-60 85,-99 9,-14 16,-28 21,-41 14,12 28,21 41,28 7,5 11,7 16,9zm0 -453l0 287c-62,-67 -76,-168 -28,-250 9,-14 18,-25 28,-37zm0 -584l0 67c-51,0 -101,28 -129,74 -41,69 -18,161 55,200 23,14 48,21 74,21l0 67c-37,0 -74,-9 -108,-28 -23,-14 -41,-28 -55,-46l0 -280c41,-48 101,-73 163,-73zm0 -198l0 64c-58,0 -113,14 -163,39l0 -71c51,-21 108,-32 163,-32zm0 -303l-12 7 -76 -133 -76 44 0 149 12 21 -12 7 0 73 101 -57 -78 -131 28 -18 78 133 35 -21 0 -74zm0 -175l0 133 -60 -101 60 -32zm0 -1018l0 74 -122 69 122 207 0 53 -41 23 -62 37 37 62 67 -39 0 85 -30 18 30 48 0 129 -163 -280 0 -126 21 39 64 -34 -85 -145 0 -126 163 -92zm0 -230l0 71 -163 94 0 -74 147 -85c5,-2 11,-5 16,-7zm0 632l0 -53 23 39 -23 14zm163 2367l0 62c-55,0 -110,-9 -163,-30l0 -71c53,25 108,39 163,39zm0 -563l0 69c-53,0 -103,25 -131,74 -41,69 -16,159 55,200 23,11 51,18 76,18l0 67c-37,0 -76,-9 -110,-28 -21,-12 -37,-25 -53,-41l0 -287c41,-46 101,-69 163,-71zm0 -441l0 285c-41,46 -101,71 -163,71l0 -67c53,0 103,-28 131,-74 41,-71 16,-161 -55,-200 -23,-14 -51,-21 -76,-21l0 -67c37,0 76,9 110,28 21,11 37,28 53,44zm0 -237l0 69c-53,-25 -108,-37 -163,-37l0 -64c55,0 110,9 163,32zm0 -427l-2 0 -78 -131 -83 48 0 133 18 32 -18 9 0 74 108 -60 -78 -131 30 -18 78 133 25 -16 0 -74zm0 -476l0 195 -41 23 41 69 0 126 -163 -273 0 -129 85 142 62 -34 -115 -193 -32 18 0 -85 60 -34 0 2 103 172zm0 -806l0 149c-11,16 -25,30 -44,39l-119 67 0 -74 80 -46c34,-18 46,-60 28,-94l0 2c-21,-34 -64,-46 -97,-25l-11 5 0 -71c60,-23 126,-5 163,48zm0 149l0 -149c2,2 5,5 5,7 28,46 23,101 -5,142zm0 852l0 -195 87 147 -87 48zm0 354l0 -74 28 -16 -28 -46 0 -126 117 198 -117 64zm0 875c9,-9 18,-23 28,-37 48,-80 35,-182 -28,-248l0 285zm0 584c76,0 149,-37 188,-106 60,-101 25,-234 -80,-292 -34,-21 -71,-30 -108,-30l0 69c25,0 51,5 74,18 73,41 96,131 55,200 -28,48 -78,74 -129,74l0 67zm420 -230l0 37c-5,62 -23,126 -57,186 -76,131 -218,205 -363,205l0 -62c122,-2 241,-64 308,-175 97,-165 39,-379 -131,-476 -14,-7 -28,-14 -44,-21 2,-2 5,-7 7,-9l0 -2 2 0 0 -2 2 -2c99,-168 39,-379 -131,-476 -5,-2 -9,-7 -14,-9l0 -69c16,7 32,14 48,23 186,106 260,331 175,522 122,74 191,200 198,331z"/>
   <path class="fil2" d="M848 4868l14 30c-23,11 -41,25 -48,41 -9,18 -9,37 0,55 9,21 23,35 41,41 18,7 37,7 60,-2 9,-5 18,-11 23,-18 7,-7 12,-14 14,-25 2,-9 5,-25 2,-48l0 -23c-2,-32 2,-55 11,-74 12,-18 28,-32 51,-41 25,-11 51,-14 76,-2 25,9 44,25 55,51 11,28 14,53 5,74 -9,23 -25,39 -53,51l-2 2 -11 -28c18,-9 32,-23 37,-37 7,-14 7,-30 -2,-48 -7,-16 -21,-30 -37,-34 -18,-7 -37,-7 -55,2 -7,2 -14,7 -21,14 -7,5 -12,12 -14,18 -7,11 -9,34 -7,64l0 14c2,32 -2,57 -11,76 -9,16 -25,32 -48,41 -30,14 -57,14 -80,5 -25,-9 -46,-28 -60,-57 -11,-30 -14,-55 -2,-80 9,-23 32,-44 64,-60z"/>
   <path class="fil2" d="M1096 5297c-39,18 -74,28 -103,23 -28,-5 -51,-21 -67,-46 -18,-35 -18,-64 0,-97 18,-30 55,-62 115,-94 57,-34 106,-51 140,-51 37,-2 64,14 85,46 16,28 18,55 12,80 -9,25 -30,48 -60,67l-18 -28c25,-16 39,-32 46,-51 7,-18 7,-35 -5,-53 -14,-23 -35,-35 -64,-30 -30,2 -71,16 -119,46 -51,28 -83,53 -99,78 -18,23 -21,46 -7,69 12,18 28,30 51,32 23,0 48,-5 78,-21l16 28z"/>
   <polygon class="fil2" points="1041,5437 1351,5224 1369,5249 1059,5463 "/>
   <polygon class="fil2" points="1119,5543 1409,5306 1521,5437 1498,5456 1409,5350 1305,5435 1383,5529 1363,5548 1282,5454 1165,5550 1255,5653 1232,5672 "/>
   <polygon class="fil2" points="1298,5743 1553,5472 1579,5495 1464,5828 1684,5589 1707,5610 1454,5881 1427,5858 1537,5529 1321,5764 "/>
   <polygon class="fil2" points="1595,5980 1785,5699 1714,5651 1732,5628 1903,5738 1884,5764 1813,5715 1620,5998 "/>
   <polygon class="fil2" points="1762,6081 1937,5755 1965,5768 1790,6095 "/>
   <path class="fil2" d="M1978 6023l57 21 0 30 -74 -28 -71 97 -28 -9 172 -232 0 44 -57 78zm57 21l37 14 21 -188 -57 76 0 -44 57 -76 34 12 -41 381 -30 -11 11 -119 -32 -14 0 -30z"/>
   <polygon class="fil2" points="2190,6196 2220,6203 2148,6308 2121,6301 "/>
   <polygon class="fil2" points="2438,6290 2385,5911 2417,5915 2463,6246 2590,5936 2619,5938 2475,6292 "/>
   <polygon class="fil2" points="2647,6306 2658,5936 2691,5938 2679,6306 "/>
   <polygon class="fil2" points="2835,6306 2819,5966 2734,5971 2734,5941 2936,5931 2936,5961 2851,5964 2867,6304 "/>
   <path class="fil2" d="M3047 6143l51 -9 0 30 -51 7 -12 119 -30 5 39 -379 37 -7 16 39 0 71 -30 -67 -21 191zm51 -9l51 -7 -51 -108 0 -71 145 310 -32 5 -51 -110 -62 11 0 -30z"/>
   <polygon class="fil2" points="3467,6191 3327,5849 3488,5787 3497,5814 3368,5865 3419,5987 3534,5943 3545,5968 3430,6014 3488,6152 3617,6101 3626,6129 "/>
   <polygon class="fil2" points="3766,6058 3594,5764 3518,5805 3504,5780 3681,5681 3695,5706 3621,5748 3793,6042 "/>
   <polygon class="fil2" points="4053,5865 3800,5591 3929,5476 3950,5500 3846,5589 3938,5688 4030,5607 4049,5628 3957,5709 4078,5842 "/>
   <polygon class="fil2" points="4239,5690 3961,5442 3982,5419 4260,5667 "/>
   <path class="fil2" d="M4225 5295c-21,-9 -37,-16 -51,-16 -28,0 -53,14 -78,46l-25 34 154 113 0 41 -195 -145 46 -60c30,-41 62,-60 99,-60 14,0 32,2 51,11l0 35zm103 253l25 -34c25,-32 32,-60 25,-85 -9,-25 -39,-55 -90,-92 -23,-18 -44,-30 -64,-41l0 -35c25,9 53,25 85,48 55,41 87,78 99,110 9,32 0,69 -30,108l-48 62 -106 -76 0 -41 103 76z"/>
   <polygon class="fil2" points="4515,5334 4189,5153 4274,5005 4299,5019 4230,5136 4350,5203 4409,5097 4435,5111 4372,5217 4506,5290 4575,5173 4600,5187 "/>
   <path class="fil2" d="M4538 5077l14 -28c25,9 46,11 67,7 18,-7 32,-18 39,-37 12,-23 12,-41 5,-60 -7,-16 -21,-30 -41,-39 -11,-5 -21,-7 -30,-7 -9,0 -18,2 -28,7 -9,5 -23,14 -39,32 -7,7 -14,12 -16,16 -23,21 -46,35 -64,39 -21,5 -44,2 -67,-9 -25,-12 -44,-28 -53,-53 -9,-23 -7,-48 5,-74 11,-28 28,-46 51,-53 23,-9 48,-7 74,5l2 0 -12 28c-21,-7 -39,-9 -53,-5 -16,7 -28,16 -34,34 -9,18 -9,34 -2,53 7,16 18,28 37,37 9,2 18,5 25,7 9,0 16,0 25,-2 14,-5 30,-18 53,-41 5,-2 7,-7 9,-9 25,-21 46,-37 64,-41 21,-5 41,-2 64,7 30,14 51,32 60,57 9,23 9,51 -5,80 -14,30 -32,48 -60,55 -25,9 -55,7 -90,-7z"/>
  </g>
 </g>
</svg>
