<?xml version="1.0" encoding="UTF-8" standalone="no"?>
<!-- Created with Inkscape (http://www.inkscape.org/) -->

<svg
   xmlns:i="http://ns.adobe.com/AdobeIllustrator/10.0/"
   xmlns:dc="http://purl.org/dc/elements/1.1/"
   xmlns:cc="http://creativecommons.org/ns#"
   xmlns:rdf="http://www.w3.org/1999/02/22-rdf-syntax-ns#"
   xmlns:svg="http://www.w3.org/2000/svg"
   xmlns="http://www.w3.org/2000/svg"
   xmlns:sodipodi="http://sodipodi.sourceforge.net/DTD/sodipodi-0.dtd"
   xmlns:inkscape="http://www.inkscape.org/namespaces/inkscape"
   width="177.16534"
   height="460.62991"
   id="svg3948"
   version="1.1"
   inkscape:version="0.48.5 r10040"
   sodipodi:docname="o-debian-brasil.svg">
  <defs
     id="defs3950">
    <clipPath
       clipPathUnits="userSpaceOnUse"
       id="clipPath16">
      <path
         inkscape:connector-curvature="0"
         d="M 0,800 1280,800 1280,0 0,0 0,800 z"
         id="path18" />
    </clipPath>
    <clipPath
       clipPathUnits="userSpaceOnUse"
       id="clipPath38">
      <path
         inkscape:connector-curvature="0"
         d="M 0,800 1280,800 1280,0 0,0 0,800 z"
         id="path40" />
    </clipPath>
    <clipPath
       clipPathUnits="userSpaceOnUse"
       id="clipPath56">
      <path
         inkscape:connector-curvature="0"
         d="M 0,800 1280,800 1280,0 0,0 0,800 z"
         id="path58" />
    </clipPath>
    <clipPath
       clipPathUnits="userSpaceOnUse"
       id="clipPath80">
      <path
         inkscape:connector-curvature="0"
         d="M 0,800 1280,800 1280,0 0,0 0,800 z"
         id="path82" />
    </clipPath>
    <clipPath
       clipPathUnits="userSpaceOnUse"
       id="clipPath100">
      <path
         inkscape:connector-curvature="0"
         d="M 0,800 1280,800 1280,0 0,0 0,800 z"
         id="path102" />
    </clipPath>
  </defs>
  <sodipodi:namedview
     id="base"
     pagecolor="#ffffff"
     bordercolor="#666666"
     borderopacity="1.0"
     inkscape:pageopacity="0.0"
     inkscape:pageshadow="2"
     inkscape:zoom="0.49497475"
     inkscape:cx="-434.2117"
     inkscape:cy="263.67008"
     inkscape:document-units="px"
     inkscape:current-layer="g4457"
     showgrid="false"
     inkscape:window-width="1600"
     inkscape:window-height="834"
     inkscape:window-x="0"
     inkscape:window-y="27"
     inkscape:window-maximized="1"
     units="cm" />
  <metadata
     id="metadata3953">
    <rdf:RDF>
      <cc:Work
         rdf:about="">
        <dc:format>image/svg+xml</dc:format>
        <dc:type
           rdf:resource="http://purl.org/dc/dcmitype/StillImage" />
        <dc:title />
      </cc:Work>
    </rdf:RDF>
  </metadata>
  <g
     inkscape:label="Camada 1"
     inkscape:groupmode="layer"
     id="layer1"
     transform="translate(0,-591.73206)">
    <g
       id="g4457"
       transform="translate(-188.60687,-509.65489)">
      <g
         id="g3232"
         transform="translate(-304.56099,80.496531)">
        <g
           id="g4352"
           transform="matrix(0.42731475,0,0,0.42731475,395.2817,783.88518)">
          <g
             id="g4365"
             transform="translate(7.9958433,-3.9979216)">
            <g
               id="g4376"
               transform="translate(0,-17.610061)">
              <g
                 id="g3036"
                 transform="matrix(0.41829309,0,0,0.41829309,170.54914,1045.0232)">
                <path
                   style="fill:#4e9a06;fill-rule:evenodd;stroke:none"
                   d="m 582.64234,303.76859 c -0.005,0.0104 0.005,0.0259 0,0.0362 -1.40256,0.24723 -2.79492,0.50251 -4.20258,0.76082 -0.0539,0.11724 -0.15002,0.22353 -0.21737,0.36229 -0.27983,0.57601 -0.58055,1.16536 -0.90573,1.77523 -1.40725,2.63858 -2.94434,5.24535 -4.56488,7.86172 -7.60321,12.27052 -16.13464,23.86924 -24.78073,35.1785 -9.65182,12.62012 -19.43964,24.77431 -29.27315,36.59144 -263.00554,-1.27955 -361.49444,-23.15036 -361.49444,-23.15036 0,0 27.38178,56.73405 46.26462,315.12112 -38.52658,20.84428 -61.08296,33.40465 -62.8938,35.10604 0.11924,-0.0669 0.26374,-0.16668 0.47098,-0.2536 0.45971,-0.19285 1.13418,-0.43139 2.02884,-0.68835 0.23577,-0.0677 0.53076,-0.1472 0.79704,-0.21738 5.88019,-2.6011 20.51517,-9.75091 41.84466,-20.46947 -21.40534,11.97633 -35.59427,18.02964 -41.69975,20.43324 -0.045,0.0117 -0.10063,0.0246 -0.14491,0.0362 -0.20919,0.0925 -0.31328,0.13213 -0.50721,0.21738 -1.74104,0.67489 -2.93456,1.1231 -2.93456,1.1231 0,0 0.36719,-0.13778 0.94196,-0.28983 -0.57297,0.22795 -0.90817,0.35436 -0.94196,0.28983 0,0 -0.0124,-0.003 0,0.0362 0.0494,0.005 0.13494,0.0165 0.21737,0.0362 0.13396,-0.009 0.28863,-0.0436 0.50721,-0.0725 0.48675,-0.0645 1.19253,-0.16253 2.10129,-0.28984 1.90587,-0.26697 4.72485,-0.6188 8.47762,-0.8695 3.98273,-0.26605 8.98427,-0.43849 14.96264,-0.28983 5.97837,0.14865 12.96632,0.60349 20.83176,1.4854 5.70082,0.63966 11.90736,1.52978 18.51309,2.60849 11.68361,181.78099 2.07717,238.52108 -5.7242,256.03138 21.60242,-19.3043 97.66096,-69.13108 317.91077,-84.4139 9.38967,12.02625 18.91608,24.1954 28.72971,36.70012 2.80076,-1.0681 5.61551,-2.11631 8.44139,-3.18816 8.01124,-5.27759 16.51667,-10.16492 25.21549,-15.10756 13.6453,-7.75456 27.62197,-15.45539 41.91712,-23.15042 215.14429,-4.5903 353.67436,24.40775 358.66856,25.46909 -4.32412,-1.28279 -34.39911,-15.70663 -49.30787,-167.52358 19.15008,-6.53676 38.61332,-12.75664 58.40139,-18.54932 30.38669,-8.86217 61.27429,-17.9334 92.42059,-27.06318 -0.6608,-0.45972 -1.326,-0.92001 -1.9926,-1.3767 2.3559,-0.45607 4.1618,-0.77908 5.4706,-1.01442 -0.1059,0.49566 -0.2224,0.98899 -0.3261,1.48539 1.7477,-0.51236 3.4309,-1.0085 5.1808,-1.52162 0.2907,-1.74774 0.6144,-3.50568 0.9056,-5.25323 -0.1339,-0.0938 -0.3012,-0.19662 -0.4347,-0.28983 -0.5661,-0.3956 -1.101,-0.76519 -1.6664,-1.15933 -2.5342,-1.7665 -5.0686,-3.52556 -7.6082,-5.28946 -12.3152,-8.5535 -24.7162,-17.15449 -37.1711,-25.75892 -8.6396,-5.96861 -17.3131,-11.93255 -26.0126,-17.93343 -29.21728,-20.15424 -58.11214,-40.02936 -86.6963,-59.6694 14.79499,-126.92942 57.78549,-216.57785 57.78549,-216.57785 0,0 -82.58147,18.49994 -321.28008,23.87501 -10.91321,-9.44528 -21.54892,-18.97231 -31.88165,-28.62103 -18.5076,-17.86984 -36.64975,-35.39847 -54.34372,-52.56849 z m 503.22286,390.76759 c -1.0615,0.31119 -2.0913,0.59482 -3.1519,0.90573 0.17,0.11831 0.3372,0.24398 0.5072,0.36229 0.5638,0.39244 1.1411,0.76754 1.7027,1.15933 0.1323,0.0923 0.2671,0.19802 0.3986,0.28983 0.1891,-0.90447 0.3544,-1.81266 0.5434,-2.71718 z M 200.31615,972.26884 c -5.39031,4.8168 -7.42698,7.753 -7.42698,7.753 0,0 3.47513,1.117 7.42698,-7.753 z M 587.67819,308.8769 c -0.0946,0.2017 -0.20231,0.36641 -0.28983,0.54344 -0.27713,0.56064 -0.55632,1.09792 -0.83327,1.63031 -0.55347,-0.70277 -1.04432,-1.3154 -1.44917,-1.84768 0.85617,-0.10539 1.71055,-0.21318 2.57227,-0.32607 z"
                   id="path3959-6"
                   inkscape:connector-curvature="0" />
                <path
                   style="fill:#edd400;fill-rule:evenodd;stroke:none"
                   d="m 140.42921,713.57467 c 0,0 104.90303,-35.66702 262.25758,-195.11963 C 560.04132,359.00243 583.12,306.55092 583.12,306.55092 c 0,0 48.25539,71.33406 255.96339,214.00218 207.70801,142.66812 249.66921,172.04098 249.66921,172.04098 0,0 -153.15842,25.17671 -339.88582,119.58944 -186.72739,94.41273 -201.41381,109.09916 -201.41381,109.09916 0,0 -48.2554,-100.70691 -199.31577,-163.64873 C 197.07685,694.69213 140.42921,713.57467 140.42921,713.57467 z"
                   id="path3950"
                   inkscape:connector-curvature="0" />
                <path
                   style="color:#000000;fill:#204a87;fill-opacity:1;fill-rule:nonzero;stroke:none;stroke-width:1.25;marker:none;visibility:visible;display:inline;overflow:visible;enable-background:accumulate"
                   d="m 943.98639,619.16194 c 0,142.52342 -115.53805,258.06146 -258.06146,258.06146 -142.5234,0 -258.06145,-115.53804 -258.06145,-258.06146 0,-142.5234 115.53805,-258.06144 258.06145,-258.06144 142.52341,0 258.06146,115.53804 258.06146,258.06144 z"
                   id="path3946"
                   inkscape:connector-curvature="0" />
                <path
                   style="fill:#ffffff"
                   d="m 708.53238,380.1085 c -7.95622,0.61685 -15.871,0.98988 -23.68493,1.91255 l 3.45022,0.44539 c 5.74234,-1.9455 14.12242,-1.07676 20.23471,-2.35794 z m -34.71434,3.37972 c -12.92456,0.72757 -30.8768,6.96736 -25.33933,1.28377 -21.08565,8.72046 -58.53568,20.96243 -79.55306,39.22055 l -0.65044,-4.10021 c -9.6294,10.70814 -42.00614,31.98003 -44.58423,45.86213 l -2.57351,0.56328 c -5.00253,7.86108 -8.25891,16.76766 -12.23133,24.85017 -6.5505,10.34962 -9.6013,3.98281 -8.66797,5.60668 -12.89043,24.21062 -19.30419,44.54896 -24.83029,61.2412 3.93827,5.45689 0.0983,32.85535 1.58372,54.78303 -6.46511,108.31507 82.05692,213.47294 178.81763,237.74683 14.18232,4.70819 35.27131,4.54011 53.20978,5.00408 -21.15965,-5.60976 -23.90298,-2.9693 -44.52767,-9.62829 -14.87094,-6.49553 -18.12231,-13.90165 -28.66229,-22.37432 l 4.17137,6.82494 c -20.65882,-6.77494 -12.00621,-8.37967 -28.81783,-13.30931 l 4.45418,-5.38399 c -6.69846,-0.47451 -17.74158,-10.4535 -20.75789,-15.99474 l -7.33878,0.2751 c -8.79851,-10.0491 -13.48346,-17.31203 -13.1363,-22.93762 l -2.37558,3.91681 c -2.68051,-4.26532 -32.37989,-37.73848 -16.96829,-29.94595 -2.86265,-2.41474 -6.67707,-3.94474 -10.80315,-10.89897 l 3.13914,-3.31423 c -7.40419,-8.84172 -13.64263,-20.17129 -13.16459,-23.94628 3.95533,4.94546 6.69705,5.87131 9.41743,6.72016 -18.72955,-43.04344 -19.78828,-2.37267 -33.96491,-43.81857 l 2.99774,-0.20958 c -2.29352,-3.22143 -3.69906,-6.70437 -5.54299,-10.1261 l 1.30092,-12.03865 c -13.47662,-14.42513 -3.76201,-61.39702 -1.80996,-87.15244 1.33742,-10.47089 11.24889,-21.62741 18.77825,-39.11575 l -4.58145,-0.73359 c 8.77575,-14.17207 50.08569,-56.92395 69.23069,-54.73064 9.27086,-10.78723 -1.83272,-0.0541 -3.64818,-2.76404 20.36859,-19.5235 26.76772,-13.78808 40.51182,-17.30473 14.81404,-8.14576 -12.72139,3.18528 -5.69852,-3.10464 25.62718,-6.05793 18.15959,-13.78556 51.58365,-16.85934 3.5285,1.85588 -8.17762,2.86972 -11.11424,5.27919 21.34175,-9.68002 67.54129,-7.46726 97.56773,5.37088 34.81269,15.08419 73.94683,59.64426 75.49482,101.57523 l 1.76753,0.44541 c -0.88783,16.67114 2.74537,35.95191 -3.57749,53.65645 l 4.2845,-8.38383 c 0.5122,12.738 -4.02459,18.92199 -8.1165,29.86737 l -7.35293,3.39283 c -6.01554,10.8294 0.60343,6.87412 -3.70475,15.48386 -9.40176,7.73453 -28.48892,24.19376 -34.60119,25.70167 -4.46754,-0.0897 3.0228,-4.88781 4.00169,-6.75947 -12.57172,7.99287 -10.09654,12.00608 -29.3269,16.87246 l -0.55147,-1.16589 c -47.40716,20.6676 -113.26591,-20.28291 -112.40087,-76.14868 -0.5008,3.54303 -1.44151,2.65047 -2.48868,4.07401 -2.44718,-28.73956 14.32239,-57.59754 42.61873,-69.40232 27.676,-12.68525 60.12399,-7.48846 79.93484,9.6414 -10.88146,-13.21251 -32.55684,-27.22135 -58.22955,-25.92435 -25.16053,0.37961 -48.70724,15.19621 -56.56102,31.28212 -12.88472,7.51309 -14.38285,28.97334 -19.99431,32.90651 -7.56353,51.4581 14.20758,73.67685 51.0463,99.83297 2.89111,1.80841 3.30169,2.85129 3.08258,3.78583 0.003,-0.002 0.0123,0.002 0.014,0 43.45751,15.03145 88.33743,11.38521 125.93308,-16.53187 9.57249,-6.90677 20.02662,-18.65301 23.04861,-18.81119 -4.54721,6.33736 0.77945,3.05185 -2.71492,8.64582 9.51558,-14.2406 -4.15291,-5.79754 9.84161,-24.58819 l 5.1612,6.58917 c -1.93499,-11.83114 15.85104,-26.1839 14.04125,-44.87964 4.08055,-5.71522 4.55152,6.15976 0.22625,19.30898 6.00416,-14.58856 1.5884,-16.93453 3.125,-28.97657 1.65612,4.04916 3.85621,8.33915 4.97738,12.61503 -3.91551,-14.10352 3.99805,-23.73863 5.96719,-31.93714 -1.94638,-0.79084 -6.04057,6.23582 -6.98529,-10.41426 0.14229,-7.23366 2.18975,-3.79843 2.96944,-5.58048 -1.52522,-0.81723 -5.54773,-6.35602 -7.98923,-16.99034 1.75856,-2.50438 4.72778,6.47426 7.14082,6.83806 -1.55368,-8.45157 -4.22723,-14.90159 -4.34106,-21.39183 -7.057,-13.65538 -2.48745,1.83149 -8.20133,-5.8556 -7.51232,-21.69043 6.2216,-5.03253 7.15496,-14.88128 11.3709,15.26345 17.85488,38.92968 20.84274,48.73097 -2.27646,-11.95242 -5.94521,-23.53674 -10.43553,-34.74046 3.46592,1.35498 -5.5767,-24.57865 4.49661,-7.40134 -10.75055,-36.61645 -45.9684,-70.84143 -78.37942,-86.89045 3.95534,3.35847 8.95613,7.57541 7.1691,8.23973 -16.12868,-8.88391 -13.30023,-9.58161 -15.61082,-13.33553 -13.11808,-4.95072 -13.98786,0.40853 -22.66684,0.013 C 744.593,394.58463 739.82628,395.86967 717.04465,388.2564 l 1.03224,4.49322 c -16.39616,-5.06147 -19.10471,1.91111 -36.82121,0.013 -1.07474,-0.77439 5.66405,-2.81816 11.22736,-3.56312 -15.84071,1.93553 -15.10431,-2.90728 -30.61366,0.52399 3.81875,-2.48328 7.87366,-4.12653 11.94851,-6.23546 z m 12.79694,2.75094 c 4.54153,0.74867 9.80668,1.33782 9.04976,2.34486 4.98544,-1.01757 6.11142,-1.94416 -9.04976,-2.34486 z m 9.04976,2.34486 -3.16741,0.61567 2.9553,-0.26199 0.21211,-0.35368 z m -209.23332,93.3224 c -0.003,0.2114 0.0123,0.39234 0.0424,0.55018 -0.0159,-0.18251 -0.0208,-0.36392 -0.0424,-0.55018 z m 0.0424,0.55018 c 0.93023,10.94501 -9.07281,15.10314 2.29071,7.72883 5.92448,-12.35672 -1.66552,-4.37534 -2.29071,-7.72883 z m -9.47397,35.52645 c -7.35864,8.72046 -3.38326,10.58736 -4.15724,16.51874 2.66913,-7.57636 3.13851,-12.12688 4.15724,-16.51874 z m 303.06803,52.67398 c -1.05215,0.0252 -2.40249,2.49851 -3.08258,5.20059 1.58214,0.76976 2.83842,10.01194 4.36935,4.29671 0.51789,-7.09395 -0.23462,-9.52235 -1.28677,-9.4973 z m 93.00044,23.90699 -1.25847,2.90813 c -2.28784,15.06837 -7.2384,29.9761 -14.819,43.80548 8.37736,-14.58859 13.78395,-30.54332 16.07747,-46.71361 z m -98.501,5.31849 c -1.14393,5.21961 -4.19317,9.72207 -7.08427,14.48828 -15.89533,9.27405 -1.50523,-5.50916 -0.014,-11.13476 -17.08479,19.94528 -2.34344,11.96766 -2.96945,17.54053 5.08218,-6.47972 8.76459,-13.5655 10.06785,-20.89405 z m -34.67191,30.41754 c -6.90333,1.56588 -13.93538,1.60445 -21.02654,1.00867 -8.50256,0.1055 1.59455,4.05901 12.69794,5.64599 3.0789,-2.22492 5.84728,-4.47191 8.3286,-6.65466 z m -107.32451,1.03489 c 1.87808,6.38479 5.73595,11.87322 9.30429,17.46192 l -2.63008,-7.15244 c -2.95939,-3.03687 -4.70508,-6.68212 -6.67421,-10.30948 z m -6.53278,10.78105 -1.20194,5.52809 c 5.5944,7.03859 10.03529,14.66413 17.16627,20.14736 -5.1334,-9.27406 -8.94148,-13.11671 -15.96433,-25.67545 z m 10.73243,8.18733 c 19.89053,32.99435 80.68899,57.86408 112.54228,45.52153 -14.74005,0.50615 -33.46425,0.28379 -50.01408,-5.38399 -6.30591,-2.99961 -14.63602,-8.89104 -14.91795,-10.93826 -0.31569,0.74515 -0.80935,1.50187 -0.49492,2.61994 -12.23595,-5.30398 -23.44434,-13.32227 -32.66398,-23.13411 4.89438,6.62736 10.17291,13.06857 16.99658,18.13002 -11.54732,-3.61155 -26.9576,-25.90829 -31.44793,-26.81513 z m 47.77993,28.70149 c -0.13598,0.11813 -0.19397,0.28794 -0.16975,0.48469 0.067,-0.1592 0.12946,-0.32286 0.16975,-0.48469 z"
                   id="path3820"
                   inkscape:connector-curvature="0" />
                <path
                   style="color:#000000;fill:#ffffff;fill-opacity:1;fill-rule:nonzero;stroke:none;stroke-width:1.25;marker:none;visibility:visible;display:inline;overflow:visible;enable-background:accumulate"
                   inkscape:transform-center-x="-1.9365375"
                   inkscape:transform-center-y="-0.96456627"
                   d="m 833.13173,813.92594 -15.09175,-13.91673 -19.45605,6.54973 8.572,-18.65363 -12.24141,-16.47982 20.38954,2.38817 11.89043,-16.73482 4.02945,20.12959 19.5901,6.13712 -17.89922,10.05261 z"
                   id="path3948"
                   inkscape:connector-curvature="0" />
              </g>
              <g
                 id="text2985-9-4-9"
                 style="font-size:74.84546661px;font-style:normal;font-variant:normal;font-weight:bold;font-stretch:normal;text-align:center;line-height:100%;letter-spacing:0px;word-spacing:0px;writing-mode:lr-tb;text-anchor:middle;fill:#4e9a06;fill-opacity:1;stroke:none;font-family:Arial;-inkscape-font-specification:Arial Bold"
                 transform="scale(1.0165346,0.98373434)">
                <path
                   inkscape:connector-curvature="0"
                   id="path5151"
                   style="line-height:100%;fill:#4e9a06;font-family:Arial;-inkscape-font-specification:Arial Bold"
                   d="m 298.69886,1476.4997 19.77119,0 c 4.45854,0 7.85728,0.3411 10.19623,1.0232 3.14289,0.9259 5.83508,2.5705 8.07659,4.9337 2.24142,2.3633 3.94688,5.2626 5.11639,8.6979 1.16941,3.4109 1.75414,7.6258 1.75419,12.6447 -5e-5,4.4099 -0.54824,8.2107 -1.64455,11.4023 -1.34006,3.8982 -3.25261,7.0533 -5.73767,9.4653 -1.87605,1.8273 -4.40988,3.2526 -7.60149,4.2758 -2.38768,0.7553 -5.57933,1.133 -9.57496,1.133 l -20.35592,0 0,-53.5759 m 10.81751,9.0633 0,35.4858 8.07658,0 c 3.02108,0 5.20164,-0.1705 6.54167,-0.5116 1.75416,-0.4386 3.2038,-1.1817 4.34893,-2.2293 1.16943,-1.0477 2.11961,-2.7653 2.85056,-5.153 0.73088,-2.412 1.09633,-5.6889 1.09637,-9.8307 -4e-5,-4.1419 -0.36549,-7.3213 -1.09637,-9.5385 -0.73095,-2.217 -1.75422,-3.9468 -3.06983,-5.1894 -1.31568,-1.2425 -2.98459,-2.0831 -5.00675,-2.5217 -1.51058,-0.341 -4.47078,-0.5116 -8.88059,-0.5116 l -4.86057,0" />
                <path
                   inkscape:connector-curvature="0"
                   id="path5153"
                   style="line-height:100%;fill:#4e9a06;font-family:Arial;-inkscape-font-specification:Arial Bold"
                   d="m 375.22543,1517.7231 10.23277,1.7177 c -1.31568,3.752 -3.39878,6.6147 -6.2493,8.5882 -2.82623,1.9491 -6.37115,2.9237 -10.63478,2.9237 -6.74878,0 -11.74334,-2.205 -14.98371,-6.6148 -2.5582,-3.5327 -3.8373,-7.9913 -3.83729,-13.3757 -1e-5,-6.432 1.68109,-11.4631 5.04329,-15.0934 3.36219,-3.6545 7.61366,-5.4818 12.75443,-5.4818 5.77419,0 10.3302,1.9126 13.66807,5.7377 3.3378,3.8007 4.93362,9.6359 4.78748,17.5053 l -25.72813,0 c 0.0731,3.0455 0.90144,5.421 2.4851,7.1264 1.58363,1.6811 3.55709,2.5217 5.9204,2.5217 1.60798,0 2.96017,-0.4386 4.05656,-1.3157 1.09634,-0.8771 1.92471,-2.2902 2.48511,-4.2393 m 0.58473,-10.3789 c -0.0731,-2.9724 -0.84058,-5.226 -2.30238,-6.761 -1.46185,-1.5592 -3.2404,-2.3389 -5.33566,-2.3389 -2.24149,0 -4.09313,0.8162 -5.55494,2.4486 -1.46184,1.6324 -2.18057,3.8495 -2.15619,6.6513 l 15.34917,0" />
                <path
                   inkscape:connector-curvature="0"
                   id="path5155"
                   style="line-height:100%;fill:#4e9a06;font-family:Arial;-inkscape-font-specification:Arial Bold"
                   d="m 393.97334,1530.0756 0,-53.5759 10.26932,0 0,19.2961 c 3.16727,-3.6058 6.91929,-5.4088 11.25606,-5.4088 4.72654,0 8.63692,1.7177 11.73115,5.1529 3.09416,3.411 4.64125,8.3203 4.6413,14.7279 -5e-5,6.627 -1.58369,11.7312 -4.75094,15.3126 -3.14296,3.5815 -6.96806,5.3723 -11.47533,5.3723 -2.21712,0 -4.40986,-0.5482 -6.57821,-1.6446 -2.14403,-1.1207 -3.99567,-2.7653 -5.55494,-4.9337 l 0,5.7012 -9.53841,0 m 10.19623,-20.2463 c -1e-5,4.02 0.63344,6.9924 1.90038,8.9171 1.77853,2.7288 4.14181,4.0931 7.08985,4.0931 2.2658,0 4.19054,-0.9623 5.77421,-2.8871 1.60798,-1.9491 2.41198,-5.0067 2.41201,-9.1729 -3e-5,-4.4342 -0.80403,-7.6259 -2.41201,-9.575 -1.60804,-1.9734 -3.66677,-2.9602 -6.17621,-2.9602 -2.46076,0 -4.50732,0.9624 -6.13967,2.8871 -1.63239,1.9004 -2.44857,4.7997 -2.44856,8.6979" />
                <path
                   inkscape:connector-curvature="0"
                   id="path5157"
                   style="line-height:100%;fill:#4e9a06;font-family:Arial;-inkscape-font-specification:Arial Bold"
                   d="m 440.16701,1486.0015 0,-9.5018 10.26933,0 0,9.5018 -10.26933,0 m 0,44.0741 0,-38.8115 10.26933,0 0,38.8115 -10.26933,0" />
                <path
                   inkscape:connector-curvature="0"
                   id="path5159"
                   style="line-height:100%;fill:#4e9a06;font-family:Arial;-inkscape-font-specification:Arial Bold"
                   d="m 468.59953,1503.1049 -9.31914,-1.6811 c 1.04764,-3.752 2.85056,-6.5295 5.40876,-8.3324 2.55818,-1.8029 6.35892,-2.7044 11.40224,-2.7044 4.58036,0 7.99128,0.5482 10.23278,1.6446 2.24143,1.072 3.81289,2.4485 4.71438,4.1296 0.92579,1.6568 1.3887,4.7144 1.38874,9.173 l -0.10964,11.9869 c -4e-5,3.411 0.15833,5.9326 0.47509,7.565 0.34106,1.608 0.96234,3.3378 1.86383,5.1895 l -10.15968,0 c -0.26803,-0.6822 -0.59695,-1.6933 -0.98674,-3.0333 -0.17057,-0.6091 -0.29239,-1.0111 -0.36545,-1.206 -1.75422,1.7054 -3.63023,2.9845 -5.62803,3.8373 -1.99785,0.8527 -4.12968,1.2791 -6.39549,1.2791 -3.99567,0 -7.15077,-1.0842 -9.46532,-3.2526 -2.2902,-2.1684 -3.43529,-4.9093 -3.43529,-8.2228 0,-2.1927 0.52382,-4.1418 1.57146,-5.8473 1.04764,-1.7298 2.50946,-3.0454 4.38548,-3.9469 1.90036,-0.9258 4.6291,-1.7298 8.18622,-2.412 4.79964,-0.9015 8.12529,-1.742 9.97696,-2.5217 l 0,-1.0232 c -2e-5,-1.9735 -0.4873,-3.3744 -1.46182,-4.2028 -0.97458,-0.8527 -2.81404,-1.2791 -5.51839,-1.2791 -1.8273,0 -3.25258,0.3655 -4.27584,1.0964 -1.0233,0.7066 -1.85166,1.9613 -2.48511,3.7642 m 13.74116,8.3324 c -1.31567,0.4386 -3.39877,0.9624 -6.2493,1.5714 -2.85058,0.6092 -4.7144,1.2061 -5.59148,1.7908 -1.34002,0.9502 -2.01003,2.1562 -2.01001,3.618 -2e-5,1.4375 0.53598,2.68 1.608,3.7277 1.07199,1.0476 2.43636,1.5714 4.09312,1.5714 1.85162,0 3.61799,-0.6091 5.29911,-1.8273 1.24253,-0.9258 2.05871,-2.0587 2.44856,-3.3987 0.26798,-0.8771 0.40198,-2.546 0.402,-5.0068 l 0,-2.0465" />
                <path
                   inkscape:connector-curvature="0"
                   id="path5161"
                   style="line-height:100%;fill:#4e9a06;font-family:Arial;-inkscape-font-specification:Arial Bold"
                   d="m 537.89005,1530.0756 -10.26932,0 0,-19.8078 c -3e-5,-4.1905 -0.21931,-6.8949 -0.65782,-8.1131 -0.43858,-1.2425 -1.15731,-2.2049 -2.1562,-2.8871 -0.97457,-0.6822 -2.15621,-1.0233 -3.54492,-1.0233 -1.77858,0 -3.3744,0.4873 -4.78748,1.4618 -1.41312,0.9746 -2.38767,2.2659 -2.92365,3.8739 -0.51166,1.608 -0.76748,4.5804 -0.76746,8.9171 l 0,17.5785 -10.26932,0 0,-38.8115 9.53841,0 0,5.7011 c 3.38654,-4.3854 7.65019,-6.5782 12.79097,-6.5782 2.2658,0 4.33672,0.4142 6.21276,1.2426 1.87597,0.804 3.28907,1.8395 4.23929,3.1063 0.97451,1.267 1.64452,2.7044 2.01001,4.3124 0.38978,1.6081 0.58469,3.9104 0.58473,6.9071 l 0,24.1202" />
                <path
                   inkscape:connector-curvature="0"
                   id="path5163"
                   style="line-height:100%;fill:#4e9a06;font-family:Arial;-inkscape-font-specification:Arial Bold"
                   d="m 319.60296,1551.3451 21.41575,0 c 4.23926,10e-5 7.39437,0.1828 9.46532,0.5482 2.09524,0.3412 3.95907,1.0721 5.59148,2.1927 1.65669,1.1208 3.03324,2.6192 4.12966,4.4952 1.09632,1.8516 1.6445,3.9347 1.64455,6.2493 -5e-5,2.5095 -0.68223,4.8118 -2.04655,6.9071 -1.34005,2.0953 -3.16733,3.6668 -5.48185,4.7144 3.2647,0.9502 5.77417,2.5704 7.5284,4.8605 1.75414,2.2903 2.63124,4.9825 2.63129,8.0766 -5e-5,2.4364 -0.5726,4.8119 -1.71765,7.1264 -1.12078,2.2902 -2.66787,4.1297 -4.64129,5.5184 -1.94915,1.3644 -4.36116,2.2049 -7.23604,2.5217 -1.80295,0.1949 -6.15188,0.3167 -13.04679,0.3654 l -18.23628,0 0,-53.5759 m 10.81751,8.9172 0,12.3889 7.08986,0 c 4.2149,10e-5 6.834,-0.061 7.85731,-0.1827 1.85161,-0.2192 3.30125,-0.8527 4.34893,-1.9004 1.07197,-1.0719 1.60797,-2.4729 1.60801,-4.2027 -4e-5,-1.6567 -0.46295,-2.9967 -1.38874,-4.02 -0.90149,-1.0476 -2.25368,-1.6811 -4.05656,-1.9004 -1.07204,-0.1218 -4.15405,-0.1827 -9.24605,-0.1827 l -6.21276,0 m 0,21.3061 0,14.3259 10.01351,0 c 3.89817,0 6.37109,-0.1097 7.41876,-0.329 1.60798,-0.2923 2.91144,-0.9989 3.91039,-2.1196 1.02324,-1.1451 1.53487,-2.6678 1.53491,-4.5682 -4e-5,-1.608 -0.38986,-2.9724 -1.16946,-4.0931 -0.77967,-1.1207 -1.91259,-1.9369 -3.39874,-2.4486 -1.46186,-0.5116 -4.65351,-0.7674 -9.57496,-0.7674 l -8.73441,0" />
                <path
                   inkscape:connector-curvature="0"
                   id="path5165"
                   style="line-height:100%;fill:#4e9a06;font-family:Arial;-inkscape-font-specification:Arial Bold"
                   d="m 383.41165,1604.921 -10.26933,0 0,-38.8114 9.53842,0 0,5.5184 c 1.63235,-2.6069 3.09418,-4.3246 4.38547,-5.153 1.31562,-0.8283 2.80181,-1.2425 4.45857,-1.2425 2.33889,0 4.59254,0.6456 6.76094,1.9369 l -3.17947,8.9537 c -1.72985,-1.1207 -3.33786,-1.6811 -4.82402,-1.6811 -1.43748,0 -2.65567,0.402 -3.65457,1.206 -0.99893,0.7796 -1.79075,2.2049 -2.37546,4.2758 -0.56038,2.071 -0.84057,6.4077 -0.84055,13.0103 l 0,11.9869" />
                <path
                   inkscape:connector-curvature="0"
                   id="path5167"
                   style="line-height:100%;fill:#4e9a06;font-family:Arial;-inkscape-font-specification:Arial Bold"
                   d="m 410.34578,1577.9503 -9.31913,-1.6811 c 1.04763,-3.7519 2.85055,-6.5294 5.40875,-8.3324 2.55818,-1.8028 6.35893,-2.7043 11.40224,-2.7043 4.58036,0 7.99128,0.5482 10.23278,1.6445 2.24143,1.0721 3.81289,2.4486 4.71439,4.1297 0.92578,1.6567 1.38869,4.7144 1.38873,9.1729 l -0.10964,11.987 c -3e-5,3.4109 0.15833,5.9326 0.4751,7.5649 0.34105,1.6081 0.96233,3.3379 1.86382,5.1895 l -10.15968,0 c -0.26803,-0.6822 -0.59694,-1.6933 -0.98674,-3.0333 -0.17057,-0.6091 -0.29239,-1.0111 -0.36545,-1.206 -1.75422,1.7055 -3.63023,2.9846 -5.62803,3.8373 -1.99785,0.8528 -4.12968,1.2791 -6.39549,1.2791 -3.99567,0 -7.15077,-1.0842 -9.46532,-3.2525 -2.29019,-2.1684 -3.43529,-4.9093 -3.43529,-8.2228 0,-2.1927 0.52382,-4.1418 1.57146,-5.8473 1.04764,-1.7298 2.50947,-3.0455 4.38548,-3.9469 1.90036,-0.9258 4.6291,-1.7298 8.18622,-2.412 4.79964,-0.9015 8.12529,-1.742 9.97696,-2.5217 l 0,-1.0233 c -2e-5,-1.9734 -0.4873,-3.3743 -1.46182,-4.2027 -0.97458,-0.8527 -2.81404,-1.2791 -5.51839,-1.2791 -1.8273,0 -3.25258,0.3655 -4.27584,1.0963 -1.0233,0.7066 -1.85166,1.9614 -2.48511,3.7642 m 13.74116,8.3325 c -1.31566,0.4385 -3.39876,0.9623 -6.2493,1.5714 -2.85058,0.6091 -4.7144,1.206 -5.59148,1.7908 -1.34002,0.9502 -2.01003,2.1562 -2.01001,3.618 -2e-5,1.4374 0.53599,2.68 1.608,3.7276 1.07199,1.0477 2.43636,1.5715 4.09312,1.5715 1.85162,0 3.61799,-0.6091 5.29911,-1.8273 1.24253,-0.9258 2.05872,-2.0587 2.44856,-3.3987 0.26798,-0.8771 0.40198,-2.546 0.402,-5.0068 l 0,-2.0465" />
                <path
                   inkscape:connector-curvature="0"
                   id="path5169"
                   style="line-height:100%;fill:#4e9a06;font-family:Arial;-inkscape-font-specification:Arial Bold"
                   d="m 440.71521,1593.8477 10.30587,-1.5715 c 0.43853,1.9979 1.32781,3.5206 2.66783,4.5682 1.33999,1.0233 3.216,1.535 5.62803,1.535 2.65562,0 4.65345,-0.4873 5.99348,-1.4619 0.90143,-0.6821 1.35216,-1.5958 1.35219,-2.7409 -3e-5,-0.7796 -0.24367,-1.4253 -0.73091,-1.9369 -0.51167,-0.4873 -1.65676,-0.938 -3.43529,-1.3522 -8.2837,-1.8273 -13.53408,-3.4962 -15.75117,-5.0067 -3.06984,-2.0953 -4.60476,-5.0068 -4.60475,-8.7345 -10e-6,-3.3621 1.32782,-6.1883 3.98347,-8.4785 2.65564,-2.2902 6.77311,-3.4353 12.35243,-3.4353 5.31127,0 9.2582,0.8649 11.84078,2.5947 2.58253,1.7299 4.36108,4.2881 5.33567,7.6746 l -9.6846,1.7907 c -0.41421,-1.5105 -1.20603,-2.6678 -2.37546,-3.4718 -1.14512,-0.804 -2.78968,-1.206 -4.93366,-1.206 -2.7044,0 -4.64132,0.3777 -5.81076,1.1329 -0.77965,0.536 -1.16947,1.2304 -1.16946,2.0831 -10e-6,0.7309 0.34108,1.3522 1.02328,1.8638 0.9258,0.6822 4.11745,1.6446 9.57495,2.8871 5.48182,1.2426 9.30693,2.7653 11.47533,4.5682 2.14398,1.8273 3.21598,4.3733 3.21602,7.6381 -4e-5,3.5571 -1.48623,6.6147 -4.45857,9.1729 -2.97241,2.5582 -7.37006,3.8373 -13.19297,3.8373 -5.28695,0 -9.47752,-1.072 -12.5717,-3.216 -3.06984,-2.144 -5.07985,-5.0555 -6.03003,-8.7344" />
                <path
                   inkscape:connector-curvature="0"
                   id="path5171"
                   style="line-height:100%;fill:#4e9a06;font-family:Arial;-inkscape-font-specification:Arial Bold"
                   d="m 485.99525,1560.847 0,-9.5019 10.26932,0 0,9.5019 -10.26932,0 m 0,44.074 0,-38.8114 10.26932,0 0,38.8114 -10.26932,0" />
                <path
                   inkscape:connector-curvature="0"
                   id="path5173"
                   style="line-height:100%;fill:#4e9a06;font-family:Arial;-inkscape-font-specification:Arial Bold"
                   d="m 506.75317,1604.921 0,-53.5759 10.26932,0 0,53.5759 -10.26932,0" />
              </g>
            </g>
          </g>
        </g>
        <rect
           y="1021.5338"
           x="493.80142"
           height="459.29318"
           width="175.82863"
           id="rect3392"
           style="fill:none;stroke:#000000;stroke-width:1.33673441" />
        <g
           transform="matrix(-1,0,0,-1,1350.2245,2492.001)"
           id="g3152">
          <path
             style="fill:#a80030"
             inkscape:connector-curvature="0"
             i:knockout="Off"
             d="m 778.10581,1323.4218 c -1.96785,0.026 0.37013,1.0116 2.93993,1.4081 0.71258,-0.5558 1.35273,-1.1143 1.92702,-1.6596 -1.59773,0.3912 -3.22575,0.4004 -4.86695,0.2515"
             id="path3506" />
          <path
             style="fill:#a80030"
             inkscape:connector-curvature="0"
             i:knockout="Off"
             d="m 788.66556,1320.7888 c 1.17623,-1.6188 2.02976,-3.3891 2.33139,-5.2199 -0.26475,1.304 -0.96943,2.4302 -1.63856,3.6209 -3.67885,2.3169 -0.34773,-1.3751 -0.003,-2.7806 -3.95414,4.9829 -0.54531,2.9874 -0.6902,4.3796"
             id="path3508" />
          <path
             style="fill:#a80030"
             inkscape:connector-curvature="0"
             i:knockout="Off"
             d="m 792.56834,1310.6413 c 0.23972,-3.5445 -0.69679,-2.4222 -1.01159,-1.0721 0.36617,0.1923 0.65727,2.5 1.01159,1.0721"
             id="path3510" />
          <path
             style="fill:#a80030"
             inkscape:connector-curvature="0"
             i:knockout="Off"
             d="m 770.6401,1262.1972 c 1.0511,0.187 2.2708,0.3319 2.09561,0.5835 1.15384,-0.2542 1.41333,-0.4834 -2.09561,-0.5835"
             id="path3512" />
          <path
             style="fill:#a80030"
             inkscape:connector-curvature="0"
             i:knockout="Off"
             d="m 772.73703,1262.7807 -0.73893,0.1541 0.68888,-0.063 0.0501,-0.091"
             id="path3514" />
          <path
             style="fill:#a80030"
             inkscape:connector-curvature="0"
             i:knockout="Off"
             d="m 756.62146,1326.122 -0.27792,1.3791 c 1.29477,1.7584 2.32217,3.6631 3.97258,5.0329 -1.18809,-2.3169 -2.06927,-3.2745 -3.69466,-6.412"
             id="path3518" />
          <path
             style="fill:#a80030"
             inkscape:connector-curvature="0"
             i:knockout="Off"
             d="m 759.67861,1326.0035 c -0.68493,-0.7587 -1.08798,-1.6702 -1.54372,-2.5764 0.43466,1.5951 1.32507,2.9663 2.15094,4.3625 l -0.60722,-1.7861"
             id="path3520" />
          <path
             style="fill:#a80030"
             inkscape:connector-curvature="0"
             i:knockout="Off"
             d="m 813.79321,1314.2412 -0.28846,0.7271 c -0.52951,3.7644 -1.67676,7.4894 -3.43123,10.9443 1.93887,-3.6446 3.18887,-7.6317 3.71969,-11.6714"
             id="path3522" />
          <path
             style="fill:#a80030"
             inkscape:connector-curvature="0"
             i:knockout="Off"
             d="m 771.0313,1261.2528 c 1.32902,-0.4861 3.26921,-0.2674 4.68385,-0.5875 -1.8414,0.1541 -3.67359,0.2463 -5.48206,0.4768 l 0.79821,0.1107"
             id="path3524" />
          <path
             style="fill:#a80030"
             inkscape:connector-curvature="0"
             i:knockout="Off"
             d="m 724.30997,1286.0972 c 0.3069,2.8372 -2.13381,3.9397 0.54004,2.0666 1.43572,-3.2323 -0.55848,-0.8917 -0.54004,-2.0666"
             id="path3526" />
          <path
             style="fill:#a80030"
             inkscape:connector-curvature="0"
             i:knockout="Off"
             d="m 721.16457,1299.2347 c 0.61775,-1.8928 0.7284,-3.0282 0.96417,-4.1254 -1.7031,2.1786 -0.78503,2.6435 -0.96417,4.1254"
             id="path3528" />
          <g
             id="g3122"
             transform="translate(-4.1882555,0)">
            <path
               id="path3516"
               d="m 823.71806,1324.3828 c 0.14293,3.8363 -1.11948,5.7005 -2.26122,8.9971 l -2.05321,1.0211 c -1.67845,3.2617 0.16673,2.0707 -1.03532,4.6637 -2.62329,2.3296 -7.94923,7.2871 -9.65468,7.7412 -1.24653,-0.027 0.84319,-1.4704 1.11632,-2.0341 -3.50775,2.4073 -2.81542,3.6142 -8.18106,5.0798 l -0.15562,-0.3508 c -13.22755,6.2247 -31.60318,-6.1088 -31.36181,-22.9347 -0.13975,1.0671 -0.40175,0.8003 -0.69394,1.2292 -0.6828,-8.656 3.99844,-17.3499 11.89368,-20.9053 7.72215,-3.8207 16.77499,-2.255 22.30261,2.9043 -3.03615,-3.9794 -9.08461,-8.1986 -16.24781,-7.8079 -7.02028,0.1146 -13.58958,4.5749 -15.78094,9.4197 -3.59509,2.2628 -4.01431,8.7273 -5.58002,9.9119 -2.11036,15.4983 3.9651,22.1915 14.24383,30.0691 1.61334,1.0894 0.45415,1.2562 0.6701,2.085 -3.41406,-1.5975 -6.53913,-4.0111 -9.1116,-6.9662 1.36564,1.9961 2.83765,3.9365 4.74159,5.4609 -3.22193,-1.0877 -7.52365,-7.8015 -8.77655,-8.0747 5.54986,9.9374 22.51382,17.4277 31.40151,13.7103 -4.11277,0.1525 -9.33549,0.084 -13.95322,-1.6229 -1.94523,-0.9988 -4.57961,-3.0646 -4.10799,-3.4505 12.12549,4.5271 24.64798,3.4266 35.13792,-4.9815 2.6709,-2.0802 5.58637,-5.6165 6.42957,-5.6641 -1.26876,1.9086 0.21755,0.9178 -0.75745,2.6025 2.65503,-4.2889 -1.15761,-1.7466 2.74713,-7.406 l 1.44186,1.9848 c -0.53991,-3.5632 4.42241,-7.8857 3.91745,-13.5164 1.13855,-1.7213 1.26875,1.8547 0.0619,5.8149 1.67527,-4.3938 0.44303,-5.1004 0.87178,-8.7272 0.46208,1.2195 1.07662,2.5137 1.38945,3.8015 -1.09251,-4.2477 1.11632,-7.1505 1.66574,-9.6197 -0.54308,-0.2383 -1.6848,1.877 -1.9484,-3.1379 0.0397,-2.1785 0.60818,-1.1416 0.82573,-1.6783 -0.42557,-0.2462 -1.54824,-1.9167 -2.22948,-5.1196 0.49069,-0.7543 1.32118,1.9515 1.99447,2.0612 -0.43352,-2.5455 -1.17825,-4.4875 -1.21002,-6.4423 -1.96905,-4.1128 -0.6971,0.5494 -2.29139,-1.7657 -2.09609,-6.533 1.7372,-1.5165 1.99763,-4.4829 3.1727,4.5971 4.98137,11.727 5.81502,14.6789 -0.63518,-3.5998 -1.65939,-7.0885 -2.91227,-10.4628 0.96705,0.408 -1.5546,-7.4047 1.25605,-2.2311 -2.99961,-11.0283 -12.82737,-21.334 -21.87068,-26.1677 1.10361,1.0116 2.49941,2.2819 2.00079,2.482 -4.50021,-2.6758 -3.70942,-2.8869 -4.35413,-4.0175 -3.66019,-1.4911 -3.90474,0.1222 -6.32634,0 -6.90754,-3.6652 -8.23823,-3.2761 -14.59476,-5.569 l 0.28902,1.353 c -4.57487,-1.5245 -5.33072,0.5748 -10.27397,0 -0.30014,-0.2334 1.58475,-0.8512 3.13776,-1.075 -4.424,0.5842 -4.21757,-0.8735 -8.54629,0.1602 1.06551,-0.7478 2.19613,-1.2447 3.33309,-1.88 -3.60621,0.2191 -8.61299,2.0993 -7.06792,0.3875 -5.88332,2.6264 -16.33356,6.312 -22.19782,11.8111 l -0.18419,-1.2322 c -2.6868,3.2249 -11.71741,9.6323 -12.43674,13.8134 l -0.71934,0.1666 c -1.3958,2.3677 -2.3025,5.0497 -3.4109,7.484 -1.82771,3.1172 -2.68044,1.2005 -2.42002,1.6897 -3.59668,7.2918 -5.38628,13.4181 -6.92818,18.4455 1.09885,1.6435 0.027,9.896 0.44146,16.5003 -1.80391,32.6226 22.8949,64.294 49.89305,71.6049 3.95714,1.418 9.84047,1.3673 14.84564,1.507 -5.90395,-1.6896 -6.66616,-0.8941 -12.42086,-2.8997 -4.14928,-1.9563 -5.05758,-4.1873 -7.99845,-6.7391 l 1.16397,2.0563 c -5.76422,-2.0406 -3.35214,-2.5248 -8.04293,-4.0096 l 1.24337,-1.6213 c -1.86901,-0.1428 -4.94961,-3.1471 -5.79122,-4.8161 l -2.04527,0.081 c -2.45495,-3.0267 -3.76501,-5.2132 -3.66814,-6.9076 l -0.66058,1.1783 c -0.74792,-1.2847 -9.03696,-11.3665 -4.73682,-9.0196 -0.79873,-0.7272 -1.86106,-1.1862 -3.01232,-3.2806 l 0.87495,-0.9988 c -2.06591,-2.663 -3.80787,-6.0755 -3.67449,-7.2125 1.10361,1.4895 1.869,1.769 2.62804,2.0247 -5.22592,-12.964 -5.51968,-0.713 -9.47523,-13.1958 l 0.83525,-0.066 c -0.63993,-0.9703 -1.03216,-2.0167 -1.54666,-3.0473 l 0.36523,-3.6284 c -3.76023,-4.3447 -1.05121,-18.4916 -0.50654,-26.2486 0.37315,-3.1537 3.13934,-6.5122 5.2402,-11.7794 l -1.27989,-0.2191 c 2.4486,-4.2684 13.97704,-17.1482 19.31887,-16.4876 2.58675,-3.2489 -0.51449,-0.013 -1.02105,-0.829 5.68324,-5.8801 7.46968,-4.154 11.30455,-5.2131 4.13341,-2.4534 -3.54904,0.9591 -1.58953,-0.9354 7.15049,-1.8245 5.06554,-4.1508 14.39149,-5.0766 0.98453,0.559 -2.28186,0.8639 -3.10124,1.5895 5.95478,-2.9155 18.84726,-2.2501 27.22522,1.6165 9.71343,4.5431 20.6337,17.966 21.06562,30.5949 l 0.49066,0.1317 c -0.24772,5.0212 0.76857,10.8283 -0.99562,16.1606 l 1.19254,-2.5264"
               i:knockout="Off"
               inkscape:connector-curvature="0"
               style="fill:#a80030" />
            <g
               id="g3110">
              <g
                 id="g3101"
                 transform="matrix(0.89581402,0,0,0.89581402,68.415193,158.69049)">
                <path
                   id="path3530"
                   d="m 715.49811,1425.978 c -0.0593,0.062 -0.0593,9.8867 -0.18177,12.4512 -0.12118,2.0732 -0.30558,6.5292 -4.69966,6.5292 -4.51658,0 -5.6151,-5.1883 -5.98127,-7.4446 -0.42676,-2.5027 -0.42676,-4.5798 -0.42676,-5.4926 0,-2.9307 0.18308,-11.1117 7.07978,-11.1117 2.07586,0 3.23497,0.6125 4.15041,1.0985 l 0.0593,3.97 z m -17.69881,7.2036 c 0,17.2101 9.15565,17.2101 10.49784,17.2101 3.78423,0 6.22626,-2.0758 7.26287,-5.6757 l 0.1225,5.4307 c 1.16043,-0.062 2.31954,-0.1831 4.21099,-0.1831 0.67176,0 1.2197,0 1.70969,0.062 0.48867,0 0.97602,0.059 1.52528,0.1211 -0.97602,-1.952 -1.70837,-6.3461 -1.70837,-15.8705 0,-9.2769 0,-24.9617 0.79294,-29.7233 -2.19572,1.0393 -4.08981,1.711 -8.24021,2.0759 1.64777,1.7702 1.64777,2.6857 1.64777,10.7402 -1.15779,-0.3649 -2.6238,-0.793 -5.12642,-0.793 -10.9246,0 -12.69488,9.5232 -12.69488,16.6056"
                   i:knockout="Off"
                   inkscape:connector-curvature="0" />
                <path
                   id="path3532"
                   d="m 730.89977,1430.0652 c 0.0619,-5.0659 1.09984,-9.5824 5.43201,-9.5824 4.76157,0 5.12511,5.2476 5.00393,9.5824 h -10.43594 z m 16.47779,0.6124 c 0,-7.1416 -1.40278,-14.1622 -10.43593,-14.1622 -12.44989,0 -12.44989,13.7974 -12.44989,16.7241 0,12.3893 5.55319,17.2721 14.89192,17.2721 4.14777,0 6.16436,-0.6072 7.26287,-0.9154 -0.0606,-2.1971 0.24368,-3.6012 0.61249,-5.4926 -1.28424,0.7955 -2.93202,1.8321 -6.59375,1.8321 -9.52182,0 -9.64432,-8.6696 -9.64432,-11.6595 h 16.23807 l 0.11854,-3.5986"
                   i:knockout="Off"
                   inkscape:connector-curvature="0" />
                <path
                   id="path3534"
                   d="m 767.2339,1433.3015 c 0,5.6756 -1.03662,13.306 -8.1164,13.306 -0.97734,0 -2.19704,-0.1857 -2.98998,-0.3675 -0.1225,-2.197 -0.1225,-5.9813 -0.1225,-10.3753 0,-5.2503 0.54795,-7.9926 0.97734,-9.3388 1.28029,-4.3321 4.14909,-4.3914 4.69703,-4.3914 4.63907,0 5.55451,6.408 5.55451,11.167 z m -17.51573,6.653 c 0,4.5179 0,7.0798 -0.73234,9.0318 2.50262,0.9773 5.61377,1.5253 9.33873,1.5253 2.38013,0 9.27683,0 12.99915,-7.6277 1.77027,-3.5406 2.38012,-8.3022 2.38012,-11.9033 0,-2.197 -0.24499,-7.0179 -2.01395,-10.0711 -1.70705,-2.8661 -4.45467,-4.3322 -7.38274,-4.3322 -5.86008,0 -7.56845,4.8828 -8.48257,7.3854 0,-3.1125 0.0593,-13.9765 0.54663,-19.531 -3.966,1.8322 -6.40935,2.1352 -9.03183,2.3802 2.38012,0.9747 2.38012,5.0065 2.38012,18.1295 v 15.0131"
                   i:knockout="Off"
                   inkscape:connector-curvature="0" />
                <path
                   id="path3536"
                   d="m 785.43718,1450.1467 c -1.22233,-0.1831 -2.07849,-0.3056 -3.84877,-0.3056 -1.94941,0 -3.29556,0.1239 -4.69703,0.3056 0.60985,-1.1604 0.85353,-1.711 1.03662,-5.6757 0.24499,-5.4333 0.30558,-19.9603 -0.12118,-23.0122 -0.30559,-2.3209 -0.85353,-2.6857 -1.70837,-3.2956 5.00392,-0.4886 6.40803,-0.8535 8.72625,-1.952 -0.48604,2.683 -0.55058,4.0292 -0.55058,8.1164 -0.11986,21.0602 -0.18177,23.3165 1.16306,25.8191"
                   i:knockout="Off"
                   inkscape:connector-curvature="0" />
                <path
                   id="path3538"
                   d="m 804.98134,1432.8721 c -0.12118,3.8461 -0.18308,6.5318 -1.22233,8.6669 -1.28161,2.7476 -3.41674,3.5406 -5.00393,3.5406 -3.66568,0 -4.45598,-3.0506 -4.45598,-6.0406 0,-5.7362 5.12774,-6.1669 7.44464,-6.1669 h 3.2376 z m -16.78601,7.5091 c 0,3.8462 1.16043,7.6897 4.5798,9.3388 1.52528,0.6717 3.05057,0.6717 3.54055,0.6717 5.61641,0 7.50655,-4.1517 8.66698,-6.7149 -0.0619,2.6857 0,4.3322 0.18309,6.4699 1.09852,-0.062 2.19703,-0.1831 4.02922,-0.1831 1.03661,0 2.01395,0.1212 3.05056,0.1831 -0.67175,-1.0366 -1.03661,-1.6491 -1.22233,-4.0292 -0.12118,-2.3182 -0.12118,-4.6377 -0.12118,-7.8727 l 0.0619,-12.4512 c 0,-4.6404 -1.22234,-9.2176 -10.37798,-9.2176 -6.04054,0 -9.57978,1.8322 -11.35005,2.7476 0.73366,1.3436 1.34351,2.5 1.89145,5.1278 2.38276,-2.0759 5.49523,-3.1744 8.66698,-3.1744 5.06847,0 5.06847,3.3575 5.06847,8.1164 -1.16043,-0.059 -2.13777,-0.1804 -3.78687,-0.1804 -7.75417,0 -12.8806,2.9873 -12.8806,11.1682"
                   i:knockout="Off"
                   inkscape:connector-curvature="0" />
                <path
                   id="path3540"
                   d="m 840.1366,1444.1049 c 0.0619,2.0758 0.0619,4.2729 0.91543,6.0431 -1.34483,-0.1211 -2.13776,-0.3055 -4.63775,-0.3055 -1.46601,0 -2.25895,0.1238 -3.41938,0.3055 0.24236,-0.7929 0.3675,-1.0985 0.48867,-2.1377 0.18309,-1.4015 0.30559,-6.1025 0.30559,-7.7516 v -6.5911 c 0,-2.8688 0,-7.0205 -0.18572,-8.4839 -0.12118,-1.0366 -0.42413,-3.8435 -3.96732,-3.8435 -3.47864,0 -4.63775,2.5619 -5.06583,4.6378 -0.48604,2.1351 -0.48604,4.456 -0.48604,13.4878 0.0593,7.8135 0.0593,8.5432 0.66912,10.6809 -1.03661,-0.1211 -2.31821,-0.2423 -4.14908,-0.2423 -1.46601,0 -2.44203,0.059 -3.66041,0.2423 0.42676,-0.9773 0.67175,-1.466 0.79293,-4.8827 0.12382,-3.3575 0.36749,-19.8379 -0.18572,-23.742 -0.30295,-2.3828 -0.91543,-2.9307 -1.58455,-3.5405 4.94465,-0.245 6.52921,-1.0393 8.05712,-1.8296 v 6.4673 c 0.73103,-1.8941 2.25631,-6.1051 8.3614,-6.1051 7.63036,0 7.68963,5.5545 7.75154,9.2149 v 18.3759"
                   i:knockout="Off"
                   inkscape:connector-curvature="0" />
                <path
                   id="path3542"
                   d="m 785.95219,1407.5732 -5.05529,5.0526 -5.05267,-5.0526 5.05267,-5.0527 5.05529,5.0527"
                   i:knockout="Off"
                   inkscape:connector-curvature="0"
                   style="fill:#a80030" />
              </g>
              <text
                 xml:space="preserve"
                 style="font-size:17.11979294px;font-style:normal;font-weight:normal;line-height:125%;letter-spacing:0px;word-spacing:0px;fill:#000000;fill-opacity:1;stroke:none;font-family:Sans"
                 x="824.01703"
                 y="1457.3877"
                 id="text3571"
                 sodipodi:linespacing="125%"><tspan
                   sodipodi:role="line"
                   id="tspan3573"
                   x="824.01703"
                   y="1457.3877"
                   style="font-style:normal;font-variant:normal;font-weight:normal;font-stretch:normal;font-family:LaudatioC;-inkscape-font-specification:LaudatioC">.org</tspan></text>
            </g>
          </g>
        </g>
      </g>
    </g>
  </g>
</svg>
