<?xml version="1.0" encoding="UTF-8" standalone="no"?>
<!-- Created with Inkscape (http://www.inkscape.org/) -->

<svg
   xmlns:dc="http://purl.org/dc/elements/1.1/"
   xmlns:cc="http://creativecommons.org/ns#"
   xmlns:rdf="http://www.w3.org/1999/02/22-rdf-syntax-ns#"
   xmlns:svg="http://www.w3.org/2000/svg"
   xmlns="http://www.w3.org/2000/svg"
   xmlns:sodipodi="http://sodipodi.sourceforge.net/DTD/sodipodi-0.dtd"
   xmlns:inkscape="http://www.inkscape.org/namespaces/inkscape"
   id="svg3055"
   version="1.1"
   inkscape:version="0.48.4 r9939"
   width="150"
   height="50"
   xml:space="preserve"
   sodipodi:docname="Marca-Serpro.svg"
   inkscape:export-filename="/home/phls/Área de trabalho/Link para ftsl/logos/logo-serpro-150.png"
   inkscape:export-xdpi="90"
   inkscape:export-ydpi="90"><metadata
     id="metadata3061"><rdf:RDF><cc:Work
         rdf:about=""><dc:format>image/svg+xml</dc:format><dc:type
           rdf:resource="http://purl.org/dc/dcmitype/StillImage" /><dc:title></dc:title></cc:Work></rdf:RDF></metadata><defs
     id="defs3059" /><sodipodi:namedview
     pagecolor="#ffffff"
     bordercolor="#666666"
     borderopacity="1"
     objecttolerance="10"
     gridtolerance="10"
     guidetolerance="10"
     inkscape:pageopacity="0"
     inkscape:pageshadow="2"
     inkscape:window-width="1918"
     inkscape:window-height="1057"
     id="namedview3057"
     showgrid="false"
     inkscape:zoom="2.3517317"
     inkscape:cx="247.61619"
     inkscape:cy="44.60055"
     inkscape:window-x="0"
     inkscape:window-y="0"
     inkscape:window-maximized="1"
     inkscape:current-layer="g3063" /><g
     id="g3063"
     inkscape:groupmode="layer"
     inkscape:label="Marca-Serpro"
     transform="matrix(1.25,0,0,-1.25,0,49.999995)"><g
       id="g3073"
       transform="matrix(0.28560349,0,0,0.28560349,-25.050319,-101.01804)"><path
         id="path3065"
         style="fill:#0071b8;fill-opacity:1;fill-rule:evenodd;stroke:none"
         d="m 205.3301,378.1777 6.08,14.8442 c 2.7321,-1.9034 5.1543,-3.2984 7.2919,-4.1785 2.1401,-0.8768 4.1408,-1.3232 5.9947,-1.3232 1.3087,0 2.336,0.248 3.0779,0.7435 0.7554,0.496 1.1239,1.1622 1.1239,2.0137 0,1.4715 -1.8658,2.5963 -5.6106,3.3625 -1.2118,0.2727 -2.1498,0.4711 -2.8313,0.6182 -3.954,0.9638 -6.982,2.6819 -9.0839,5.1415 -2.1002,2.4588 -3.1501,5.5267 -3.1501,9.1942 0,5.6987 2.0375,10.3339 6.118,13.9048 4.0785,3.5716 9.4303,5.3625 16.0432,5.3625 3.0527,0 6.0418,-0.3937 8.9836,-1.1973 2.9404,-0.7923 5.9199,-2.0024 8.9124,-3.6218 l -5.7971,-13.8657 c -1.8284,1.3453 -3.6723,2.3856 -5.5236,3.1014 -1.844,0.7044 -3.6335,1.0638 -5.3796,1.0638 -1.3209,0 -2.346,-0.2245 -3.077,-0.6692 -0.7279,-0.4434 -1.086,-1.073 -1.086,-1.8652 0,-1.4959 2.6459,-2.8191 7.9328,-3.9442 0.8419,-0.1975 1.4967,-0.3438 1.9539,-0.4439 3.6471,-0.8144 6.5143,-2.4964 8.6159,-5.0301 2.0971,-2.5319 3.1519,-5.5975 3.1519,-9.195 0,-5.8589 -2.1164,-10.652 -6.3533,-14.3742 -4.2375,-3.7179 -9.7515,-5.5732 -16.5368,-5.5732 -3.473,0 -6.9477,0.4938 -10.4207,1.4803 -3.4846,0.9924 -6.9554,2.4735 -10.4301,4.4509 z m 47.7972,-4.5215 0,53.0076 35.4453,0 0,-14.3739 -16.7579,0 0,-5.1055 15.2003,0 0,-13.5802 -15.2003,0 0,-5.5758 17.1924,0 0,-14.3722 -35.8798,0 z m 59.2302,39.3633 0,-10.3558 2.9631,0 c 1.8156,0 3.2023,0.4439 4.1783,1.3206 0.9754,0.8779 1.4706,2.1377 1.4706,3.7823 0,1.692 -0.4952,2.9917 -1.4706,3.8928 -0.976,0.9037 -2.3627,1.3601 -4.1783,1.3601 l -2.9631,0 z m -18.6905,-39.3633 0,53.0076 23.9774,0 c 6.9472,0 12.2624,-1.5333 15.9333,-4.5964 3.6683,-3.0662 5.4975,-7.4903 5.4975,-13.2483 0,-3.7706 -0.9272,-6.8729 -2.7663,-9.309 -1.8553,-2.4482 -4.3393,-3.8684 -7.4781,-4.2752 l 14.152,-21.5787 -21.3568,0 -9.2685,17.4875 0,-17.4875 -18.6905,0 z m 52.2576,0 0,53.0076 22.7803,0 c 8.0076,0 13.864,-1.5446 17.574,-4.6352 3.7105,-3.087 5.561,-7.9844 5.561,-14.6963 0,-6.2506 -1.6699,-10.8243 -4.9901,-13.7038 -3.3373,-2.8817 -8.6307,-4.3248 -15.8689,-4.3248 l -5.9721,0 0,-15.6475 -19.0842,0 z m 19.1585,38.2751 0,-8.8367 2.9653,0 c 1.8043,0 3.2023,0.3849 4.1664,1.1364 0.9629,0.7653 1.4454,1.8413 1.4454,3.251 0,1.3966 -0.4938,2.4849 -1.4845,3.2763 -0.9868,0.7775 -2.3588,1.173 -4.1273,1.173 l -2.9653,0 z m 49.7265,1.0882 0,-10.3558 2.9639,0 c 1.8161,0 3.2023,0.4439 4.1808,1.3206 0.9728,0.8779 1.4689,2.1377 1.4689,3.7823 0,1.692 -0.4961,2.9917 -1.4689,3.8928 -0.9785,0.9037 -2.3647,1.3601 -4.1808,1.3601 l -2.9639,0 z m -18.6883,-39.3633 0,53.0076 23.9769,0 c 6.9463,0 12.2607,-1.5333 15.9307,-4.5964 3.6725,-3.0662 5.5009,-7.4903 5.5009,-13.2483 0,-3.7706 -0.9272,-6.8729 -2.7695,-9.309 -1.8538,-2.4482 -4.3387,-3.8684 -7.4775,-4.2752 l 14.1546,-21.5787 -21.3594,0 -9.2684,17.4875 0,-17.4875 -18.6883,0 z m 76.5097,16.3984 c 2.6798,0 4.8288,0.9167 6.459,2.7329 1.633,1.8292 2.4505,4.2386 2.4505,7.266 0,3.0411 -0.8175,5.4771 -2.4505,7.3293 -1.6302,1.8422 -3.7792,2.7686 -6.459,2.7686 -2.6827,0 -4.8461,-0.9264 -6.4934,-2.7907 -1.6412,-1.8553 -2.4587,-4.2897 -2.4587,-7.3072 0,-3.0274 0.8175,-5.4368 2.4587,-7.266 1.6473,-1.8162 3.8107,-2.7329 6.4934,-2.7329 z m 28.3501,9.9989 c 0,-3.8806 -0.6922,-7.5018 -2.0636,-10.8374 -1.3714,-3.3497 -3.3886,-6.3402 -6.0458,-8.9733 -2.6571,-2.5841 -5.7211,-4.5598 -9.1822,-5.9327 -3.4634,-1.3714 -7.1535,-2.0636 -11.0585,-2.0636 -3.9572,0 -7.6669,0.6922 -11.1133,2.0636 -3.4602,1.3729 -6.525,3.3755 -9.2083,6.0075 -2.6189,2.5583 -4.6247,5.5114 -5.9652,8.839 -1.351,3.335 -2.0311,6.9698 -2.0311,10.8969 0,3.9308 0.6801,7.5756 2.0311,10.9389 1.3405,3.3489 3.3463,6.3159 5.9652,8.8742 2.6575,2.5962 5.7107,4.5847 9.1709,5.9457 3.4495,1.3714 7.1683,2.0488 11.1507,2.0488 3.9741,0 7.6986,-0.6774 11.1447,-2.0488 3.4611,-1.361 6.525,-3.3495 9.2049,-5.9457 2.5997,-2.5827 4.5884,-5.5619 5.9482,-8.9099 1.3723,-3.3641 2.0523,-6.9942 2.0523,-10.9032"
         inkscape:connector-curvature="0" /><path
         id="path3067"
         style="fill:#ffffff;fill-opacity:1;fill-rule:evenodd;stroke:none"
         d="m 136.0704,478.336 -41.7759,-114.7819 89.4634,0.003 41.775,114.7757 -89.4625,0.003 z"
         inkscape:connector-curvature="0" /><path
         id="path3069"
         style="fill:#0071b8;fill-opacity:1;fill-rule:evenodd;stroke:none"
         d="m 96.9038,365.3124 85.6176,0 40.4476,111.2618 -85.6177,0 -40.4475,-111.2618 z"
         inkscape:connector-curvature="0" /><path
         id="path3071"
         style="fill:#ffffff;fill-opacity:1;fill-rule:evenodd;stroke:none"
         d="m 173.6929,405.9465 c 0,6.7036 -3.4064,12.4948 -7.0639,17.3718 l 27.7353,-27.7361 c -6.704,-13.7143 -20.4208,-23.4683 -37.4893,-23.4683 -13.8317,0 -25.5702,6.5372 -33.0395,16.7037 l 0.0609,0 c 4.9788,-6.0599 13.32,-9.8331 21.7035,-10.3578 14.9173,-0.9295 28.093,11.9412 28.093,27.4867 z m -32.665,16.1526 c 0,-6.7053 3.0469,-12.8001 6.7045,-17.3729 l -27.3286,27.6347 c 6.704,13.7142 20.0141,23.2112 36.7776,23.2112 14.5165,0 26.356,-6.3134 33.8187,-16.6264 l 0,0 c -4.9501,6.2533 -13.4458,9.8462 -22.2378,10.2787 -14.9198,0.7362 -27.7344,-11.5801 -27.7344,-27.1253"
         inkscape:connector-curvature="0" /></g></g></svg>